# Blender v2.78 (sub 0) OBJ File: ''
# www.blender.org
mtllib Bomb.mtl
o Cone.001
v 0.000000 -0.000000 1.320246
v 0.000000 -0.660000 0.000000
v 0.466690 -0.466690 0.000000
v 0.660000 0.000000 0.000000
v 0.466690 0.466691 0.000000
v -0.000000 0.660000 0.000000
v 0.000000 -0.000000 -1.320000
v -0.466691 0.466690 0.000000
v -0.660000 0.000000 0.000000
v -0.466691 -0.466690 0.000000
vn -0.3474 -0.8387 0.4193
vn -0.8387 -0.3474 0.4193
vn -0.8387 0.3474 0.4193
vn -0.3474 0.8387 0.4193
vn 0.3474 0.8387 0.4193
vn 0.8387 0.3474 0.4193
vn 0.8387 -0.3474 0.4193
vn 0.3474 -0.8387 0.4193
vn 0.3474 -0.8387 -0.4194
vn 0.8387 -0.3474 -0.4194
vn 0.8387 0.3474 -0.4194
vn 0.3474 0.8387 -0.4194
vn -0.3474 0.8387 -0.4194
vn -0.8387 0.3474 -0.4194
vn -0.8387 -0.3474 -0.4194
vn -0.3474 -0.8387 -0.4194
vn -0.0000 0.0000 1.0000
usemtl None
s off
f 2//1 1//1 10//1
f 10//2 1//2 9//2
f 9//3 1//3 8//3
f 8//4 1//4 6//4
f 6//5 1//5 5//5
f 5//6 1//6 4//6
f 4//7 1//7 3//7
f 3//8 1//8 2//8
f 2//9 7//9 3//9
f 3//10 7//10 4//10
f 4//11 7//11 5//11
f 5//12 7//12 6//12
f 6//13 7//13 8//13
f 8//14 7//14 9//14
f 9//15 7//15 10//15
f 10//16 7//16 2//16
f 2//17 3//17 4//17 5//17 6//17 8//17 9//17 10//17
