# Blender v2.78 (sub 0) OBJ File: 'kaboomB.blend'
# www.blender.org
mtllib kaboomB.mtl
o Torus
v 0.010488 0.495899 0.317716
v 0.063006 0.493227 0.317716
v 0.110384 0.485524 0.317716
v 0.152730 0.473258 0.317716
v 0.190155 0.456899 0.317716
v 0.222767 0.436914 0.317716
v 0.250676 0.413774 0.317716
v 0.273991 0.387946 0.317716
v 0.292822 0.359899 0.317716
v 0.307277 0.330102 0.317716
v 0.317468 0.299024 0.317716
v 0.323501 0.267133 0.317716
v 0.325488 0.234899 0.317716
v 0.324453 0.209048 0.317716
v 0.321329 0.184718 0.317716
v 0.316090 0.161867 0.317716
v 0.308711 0.140454 0.317716
v 0.299165 0.120437 0.317716
v 0.287426 0.101774 0.317716
v 0.273468 0.084423 0.317716
v 0.257266 0.068343 0.317716
v 0.238793 0.053493 0.317716
v 0.218023 0.039829 0.317716
v 0.194930 0.027312 0.317716
v 0.169488 0.015899 0.317716
v 0.169488 0.012899 0.317716
v 0.206469 0.004294 0.317716
v 0.240836 -0.007191 0.317716
v 0.272473 -0.021437 0.317716
v 0.301266 -0.038323 0.317716
v 0.327101 -0.057730 0.317716
v 0.349863 -0.079539 0.317716
v 0.369438 -0.103628 0.317716
v 0.385711 -0.129879 0.317716
v 0.398567 -0.158171 0.317716
v 0.407891 -0.188386 0.317716
v 0.413570 -0.220402 0.317716
v 0.415489 -0.254101 0.317716
v 0.413481 -0.285941 0.317716
v 0.407301 -0.318073 0.317716
v 0.396715 -0.349914 0.317716
v 0.381489 -0.380879 0.317716
v 0.361387 -0.410386 0.317716
v 0.336176 -0.437851 0.317716
v 0.305621 -0.462691 0.317716
v 0.269488 -0.484323 0.317716
v 0.227543 -0.502164 0.317716
v 0.179551 -0.515629 0.317716
v 0.125278 -0.524136 0.317716
v 0.064488 -0.527101 0.317716
v -0.286512 -0.527101 0.317716
v -0.286512 0.495899 0.317716
v -0.042012 0.057899 0.317716
v -0.007197 0.059025 0.317716
v 0.024509 0.062406 0.317716
v 0.053121 0.068047 0.317716
v 0.078655 0.075954 0.317716
v 0.101126 0.086132 0.317716
v 0.120551 0.098586 0.317716
v 0.136944 0.113322 0.317716
v 0.150322 0.130343 0.317716
v 0.160699 0.149657 0.317716
v 0.168093 0.171267 0.317716
v 0.172517 0.195179 0.317716
v 0.173988 0.221399 0.317716
v 0.173054 0.240273 0.317716
v 0.170141 0.258517 0.317716
v 0.165082 0.275938 0.317716
v 0.157711 0.292343 0.317716
v 0.147860 0.307540 0.317716
v 0.135363 0.321336 0.317716
v 0.120054 0.333539 0.317716
v 0.101766 0.343954 0.317716
v 0.080332 0.352391 0.317716
v 0.055586 0.358656 0.317716
v 0.027360 0.362556 0.317716
v -0.004512 0.363899 0.317716
v -0.139512 0.363899 0.317716
v -0.139512 0.057899 0.317716
v 0.044988 -0.395101 0.317716
v 0.085535 -0.393375 0.317716
v 0.121107 -0.388414 0.317716
v 0.151981 -0.380547 0.317716
v 0.178433 -0.370101 0.317716
v 0.200739 -0.357406 0.317716
v 0.219176 -0.342789 0.317716
v 0.234019 -0.326578 0.317716
v 0.245544 -0.309101 0.317716
v 0.254028 -0.290687 0.317716
v 0.259745 -0.271664 0.317716
v 0.262974 -0.252359 0.317716
v 0.263988 -0.233101 0.317716
v 0.262482 -0.210436 0.317716
v 0.257940 -0.189032 0.317716
v 0.250324 -0.169023 0.317716
v 0.239600 -0.150546 0.317716
v 0.225729 -0.133735 0.317716
v 0.208676 -0.118726 0.317716
v 0.188404 -0.105655 0.317716
v 0.164877 -0.094657 0.317716
v 0.138059 -0.085867 0.317716
v 0.107912 -0.079421 0.317716
v 0.074401 -0.075454 0.317716
v 0.037488 -0.074101 0.317716
v -0.139512 -0.074101 0.317716
v -0.139512 -0.395101 0.317716
v 0.010488 0.495899 0.217716
v 0.063006 0.493227 0.217716
v 0.110384 0.485524 0.217716
v 0.152730 0.473258 0.217716
v 0.190155 0.456899 0.217716
v 0.222767 0.436914 0.217716
v 0.250676 0.413774 0.217716
v 0.273991 0.387946 0.217716
v 0.292822 0.359899 0.217716
v 0.307277 0.330102 0.217716
v 0.317468 0.299024 0.217716
v 0.323501 0.267133 0.217716
v 0.325488 0.234899 0.217716
v 0.324453 0.209048 0.217716
v 0.321329 0.184718 0.217716
v 0.316090 0.161867 0.217716
v 0.308711 0.140454 0.217716
v 0.299165 0.120437 0.217716
v 0.287426 0.101774 0.217716
v 0.273468 0.084423 0.217716
v 0.257266 0.068343 0.217716
v 0.238793 0.053493 0.217716
v 0.218023 0.039829 0.217716
v 0.194930 0.027312 0.217716
v 0.169488 0.015899 0.217716
v 0.169488 0.012899 0.217716
v 0.206469 0.004294 0.217716
v 0.240836 -0.007191 0.217716
v 0.272473 -0.021437 0.217716
v 0.301266 -0.038323 0.217716
v 0.327101 -0.057730 0.217716
v 0.349863 -0.079539 0.217716
v 0.369438 -0.103628 0.217716
v 0.385711 -0.129879 0.217716
v 0.398567 -0.158171 0.217716
v 0.407891 -0.188386 0.217716
v 0.413570 -0.220402 0.217716
v 0.415489 -0.254101 0.217716
v 0.413481 -0.285941 0.217716
v 0.407301 -0.318073 0.217716
v 0.396715 -0.349914 0.217716
v 0.381489 -0.380879 0.217716
v 0.361387 -0.410386 0.217716
v 0.336176 -0.437851 0.217716
v 0.305621 -0.462691 0.217716
v 0.269488 -0.484323 0.217716
v 0.227543 -0.502164 0.217716
v 0.179551 -0.515629 0.217716
v 0.125278 -0.524136 0.217716
v 0.064488 -0.527101 0.217716
v -0.286512 -0.527101 0.217716
v -0.286512 0.495899 0.217716
v -0.042012 0.057899 0.217716
v -0.007197 0.059025 0.217716
v 0.024509 0.062406 0.217716
v 0.053121 0.068047 0.217716
v 0.078655 0.075954 0.217716
v 0.101126 0.086132 0.217716
v 0.120551 0.098586 0.217716
v 0.136944 0.113322 0.217716
v 0.150322 0.130343 0.217716
v 0.160699 0.149657 0.217716
v 0.168093 0.171267 0.217716
v 0.172517 0.195179 0.217716
v 0.173988 0.221399 0.217716
v 0.173054 0.240273 0.217716
v 0.170141 0.258517 0.217716
v 0.165082 0.275938 0.217716
v 0.157711 0.292343 0.217716
v 0.147860 0.307540 0.217716
v 0.135363 0.321336 0.217716
v 0.120054 0.333539 0.217716
v 0.101766 0.343954 0.217716
v 0.080332 0.352391 0.217716
v 0.055586 0.358656 0.217716
v 0.027360 0.362556 0.217716
v -0.004512 0.363899 0.217716
v -0.139512 0.363899 0.217716
v -0.139512 0.057899 0.217716
v 0.044988 -0.395101 0.217716
v 0.085534 -0.393375 0.217716
v 0.121107 -0.388414 0.217716
v 0.151981 -0.380547 0.217716
v 0.178433 -0.370101 0.217716
v 0.200739 -0.357406 0.217716
v 0.219176 -0.342789 0.217716
v 0.234019 -0.326578 0.217716
v 0.245544 -0.309101 0.217716
v 0.254028 -0.290687 0.217716
v 0.259745 -0.271664 0.217716
v 0.262974 -0.252359 0.217716
v 0.263988 -0.233101 0.217716
v 0.262482 -0.210436 0.217716
v 0.257940 -0.189032 0.217716
v 0.250324 -0.169023 0.217716
v 0.239599 -0.150546 0.217716
v 0.225729 -0.133735 0.217716
v 0.208676 -0.118726 0.217716
v 0.188404 -0.105655 0.217716
v 0.164877 -0.094657 0.217716
v 0.138059 -0.085867 0.217716
v 0.107912 -0.079421 0.217716
v 0.074401 -0.075454 0.217716
v 0.037488 -0.074101 0.217716
v -0.139512 -0.074101 0.217716
v -0.139512 -0.395101 0.217716
v 0.010488 0.495899 0.217716
v 0.010488 0.495899 0.317716
v 0.063006 0.493227 0.217716
v 0.063006 0.493227 0.317716
v 0.110384 0.485524 0.217716
v 0.110384 0.485524 0.317716
v 0.152730 0.473258 0.217716
v 0.152730 0.473258 0.317716
v 0.190155 0.456899 0.217716
v 0.190155 0.456899 0.317716
v 0.222767 0.436914 0.217716
v 0.222767 0.436914 0.317716
v 0.250676 0.413774 0.217716
v 0.250676 0.413774 0.317716
v 0.273991 0.387946 0.217716
v 0.273991 0.387946 0.317716
v 0.292822 0.359899 0.217716
v 0.292822 0.359899 0.317716
v 0.307277 0.330102 0.217716
v 0.307277 0.330102 0.317716
v 0.317468 0.299024 0.217716
v 0.317468 0.299024 0.317716
v 0.323501 0.267133 0.217716
v 0.323501 0.267133 0.317716
v 0.325488 0.234899 0.217716
v 0.325488 0.234899 0.317716
v 0.324453 0.209048 0.217716
v 0.324453 0.209048 0.317716
v 0.321329 0.184718 0.217716
v 0.321329 0.184718 0.317716
v 0.316090 0.161867 0.217716
v 0.316090 0.161867 0.317716
v 0.308711 0.140454 0.217716
v 0.308711 0.140454 0.317716
v 0.299165 0.120437 0.217716
v 0.299165 0.120437 0.317716
v 0.287426 0.101774 0.217716
v 0.287426 0.101774 0.317716
v 0.273468 0.084423 0.217716
v 0.273468 0.084423 0.317716
v 0.257266 0.068343 0.217716
v 0.257266 0.068343 0.317716
v 0.238793 0.053493 0.217716
v 0.238793 0.053493 0.317716
v 0.218023 0.039829 0.217716
v 0.218023 0.039829 0.317716
v 0.194930 0.027312 0.217716
v 0.194930 0.027312 0.317716
v 0.169488 0.015899 0.217716
v 0.169488 0.015899 0.317716
v 0.169488 0.012899 0.217716
v 0.169488 0.012899 0.317716
v 0.206469 0.004294 0.217716
v 0.206469 0.004294 0.317716
v 0.240836 -0.007191 0.217716
v 0.240836 -0.007191 0.317716
v 0.272473 -0.021437 0.217716
v 0.272473 -0.021437 0.317716
v 0.301266 -0.038323 0.217716
v 0.301266 -0.038323 0.317716
v 0.327101 -0.057730 0.217716
v 0.327101 -0.057730 0.317716
v 0.349863 -0.079539 0.217716
v 0.349863 -0.079539 0.317716
v 0.369438 -0.103628 0.217716
v 0.369438 -0.103628 0.317716
v 0.385711 -0.129879 0.217716
v 0.385711 -0.129879 0.317716
v 0.398567 -0.158171 0.217716
v 0.398567 -0.158171 0.317716
v 0.407891 -0.188386 0.217716
v 0.407891 -0.188386 0.317716
v 0.413570 -0.220402 0.217716
v 0.413570 -0.220402 0.317716
v 0.415489 -0.254101 0.217716
v 0.415489 -0.254101 0.317716
v 0.413481 -0.285941 0.217716
v 0.413481 -0.285941 0.317716
v 0.407301 -0.318073 0.217716
v 0.407301 -0.318073 0.317716
v 0.396715 -0.349914 0.217716
v 0.396715 -0.349914 0.317716
v 0.381489 -0.380879 0.217716
v 0.381489 -0.380879 0.317716
v 0.361387 -0.410386 0.217716
v 0.361387 -0.410386 0.317716
v 0.336176 -0.437851 0.217716
v 0.336176 -0.437851 0.317716
v 0.305621 -0.462691 0.217716
v 0.305621 -0.462691 0.317716
v 0.269488 -0.484323 0.217716
v 0.269488 -0.484323 0.317716
v 0.227543 -0.502164 0.217716
v 0.227543 -0.502164 0.317716
v 0.179551 -0.515629 0.217716
v 0.179551 -0.515629 0.317716
v 0.125278 -0.524136 0.217716
v 0.125278 -0.524136 0.317716
v 0.064488 -0.527101 0.217716
v 0.064488 -0.527101 0.317716
v -0.286512 -0.527101 0.217716
v -0.286512 -0.527101 0.317716
v -0.286512 0.495899 0.217716
v -0.286512 0.495899 0.317716
v -0.042012 0.057899 0.217716
v -0.042012 0.057899 0.317716
v -0.007197 0.059025 0.217716
v -0.007197 0.059025 0.317716
v 0.024509 0.062406 0.217716
v 0.024509 0.062406 0.317716
v 0.053121 0.068047 0.217716
v 0.053121 0.068047 0.317716
v 0.078655 0.075954 0.217716
v 0.078655 0.075954 0.317716
v 0.101126 0.086132 0.217716
v 0.101126 0.086132 0.317716
v 0.120551 0.098586 0.217716
v 0.120551 0.098586 0.317716
v 0.136944 0.113322 0.217716
v 0.136944 0.113322 0.317716
v 0.150322 0.130343 0.217716
v 0.150322 0.130343 0.317716
v 0.160699 0.149657 0.217716
v 0.160699 0.149657 0.317716
v 0.168093 0.171267 0.217716
v 0.168093 0.171267 0.317716
v 0.172517 0.195179 0.217716
v 0.172517 0.195179 0.317716
v 0.173988 0.221399 0.217716
v 0.173988 0.221399 0.317716
v 0.173054 0.240273 0.217716
v 0.173054 0.240273 0.317716
v 0.170141 0.258517 0.217716
v 0.170141 0.258517 0.317716
v 0.165082 0.275938 0.217716
v 0.165082 0.275938 0.317716
v 0.157711 0.292343 0.217716
v 0.157711 0.292343 0.317716
v 0.147860 0.307540 0.217716
v 0.147860 0.307540 0.317716
v 0.135363 0.321336 0.217716
v 0.135363 0.321336 0.317716
v 0.120054 0.333539 0.217716
v 0.120054 0.333539 0.317716
v 0.101766 0.343954 0.217716
v 0.101766 0.343954 0.317716
v 0.080332 0.352391 0.217716
v 0.080332 0.352391 0.317716
v 0.055586 0.358656 0.217716
v 0.055586 0.358656 0.317716
v 0.027360 0.362556 0.217716
v 0.027360 0.362556 0.317716
v -0.004512 0.363899 0.217716
v -0.004512 0.363899 0.317716
v -0.139512 0.363899 0.217716
v -0.139512 0.363899 0.317716
v -0.139512 0.057899 0.217716
v -0.139512 0.057899 0.317716
v 0.044988 -0.395101 0.217716
v 0.044988 -0.395101 0.317716
v 0.085534 -0.393375 0.217716
v 0.085535 -0.393375 0.317716
v 0.121107 -0.388414 0.217716
v 0.121107 -0.388414 0.317716
v 0.151981 -0.380547 0.217716
v 0.151981 -0.380547 0.317716
v 0.178433 -0.370101 0.217716
v 0.178433 -0.370101 0.317716
v 0.200739 -0.357406 0.217716
v 0.200739 -0.357406 0.317716
v 0.219176 -0.342789 0.217716
v 0.219176 -0.342789 0.317716
v 0.234019 -0.326578 0.217716
v 0.234019 -0.326578 0.317716
v 0.245544 -0.309101 0.217716
v 0.245544 -0.309101 0.317716
v 0.254028 -0.290687 0.217716
v 0.254028 -0.290687 0.317716
v 0.259745 -0.271664 0.217716
v 0.259745 -0.271664 0.317716
v 0.262974 -0.252359 0.217716
v 0.262974 -0.252359 0.317716
v 0.263988 -0.233101 0.217716
v 0.263988 -0.233101 0.317716
v 0.262482 -0.210436 0.217716
v 0.262482 -0.210436 0.317716
v 0.257940 -0.189032 0.217716
v 0.257940 -0.189032 0.317716
v 0.250324 -0.169023 0.217716
v 0.250324 -0.169023 0.317716
v 0.239599 -0.150546 0.217716
v 0.239600 -0.150546 0.317716
v 0.225729 -0.133735 0.217716
v 0.225729 -0.133735 0.317716
v 0.208676 -0.118726 0.217716
v 0.208676 -0.118726 0.317716
v 0.188404 -0.105655 0.217716
v 0.188404 -0.105655 0.317716
v 0.164877 -0.094657 0.217716
v 0.164877 -0.094657 0.317716
v 0.138059 -0.085867 0.217716
v 0.138059 -0.085867 0.317716
v 0.107912 -0.079421 0.217716
v 0.107912 -0.079421 0.317716
v 0.074401 -0.075454 0.217716
v 0.074401 -0.075454 0.317716
v 0.037488 -0.074101 0.217716
v 0.037488 -0.074101 0.317716
v -0.139512 -0.074101 0.217716
v -0.139512 -0.074101 0.317716
v -0.139512 -0.395101 0.217716
v -0.139512 -0.395101 0.317716
v -0.028026 0.495899 -0.314747
v -0.080544 0.493227 -0.314747
v -0.127922 0.485524 -0.314747
v -0.170268 0.473258 -0.314747
v -0.207692 0.456899 -0.314747
v -0.240304 0.436915 -0.314747
v -0.268213 0.413774 -0.314747
v -0.291528 0.387946 -0.314747
v -0.310359 0.359899 -0.314747
v -0.324815 0.330102 -0.314747
v -0.335005 0.299024 -0.314747
v -0.341039 0.267133 -0.314747
v -0.343026 0.234899 -0.314747
v -0.341990 0.209048 -0.314747
v -0.338866 0.184718 -0.314747
v -0.333627 0.161867 -0.314747
v -0.326248 0.140454 -0.314747
v -0.316702 0.120437 -0.314747
v -0.304963 0.101774 -0.314747
v -0.291006 0.084423 -0.314747
v -0.274804 0.068343 -0.314747
v -0.256331 0.053493 -0.314747
v -0.235561 0.039829 -0.314747
v -0.212468 0.027312 -0.314747
v -0.187026 0.015899 -0.314747
v -0.187026 0.012899 -0.314747
v -0.224007 0.004294 -0.314747
v -0.258373 -0.007191 -0.314747
v -0.290010 -0.021437 -0.314747
v -0.318804 -0.038323 -0.314747
v -0.344639 -0.057730 -0.314747
v -0.367401 -0.079539 -0.314747
v -0.386976 -0.103628 -0.314747
v -0.403248 -0.129879 -0.314747
v -0.416104 -0.158171 -0.314747
v -0.425429 -0.188386 -0.314747
v -0.431108 -0.220402 -0.314747
v -0.433026 -0.254101 -0.314747
v -0.431018 -0.285941 -0.314747
v -0.424839 -0.318073 -0.314747
v -0.414253 -0.349914 -0.314747
v -0.399026 -0.380879 -0.314747
v -0.378924 -0.410386 -0.314747
v -0.353713 -0.437851 -0.314747
v -0.323159 -0.462691 -0.314747
v -0.287026 -0.484323 -0.314747
v -0.245081 -0.502164 -0.314747
v -0.197088 -0.515629 -0.314747
v -0.142815 -0.524136 -0.314747
v -0.082026 -0.527101 -0.314747
v 0.268974 -0.527101 -0.314747
v 0.268974 0.495899 -0.314747
v 0.024474 0.057899 -0.314747
v -0.010341 0.059025 -0.314747
v -0.042047 0.062406 -0.314747
v -0.070659 0.068047 -0.314747
v -0.096193 0.075954 -0.314747
v -0.118664 0.086132 -0.314747
v -0.138088 0.098586 -0.314747
v -0.154482 0.113322 -0.314747
v -0.167859 0.130343 -0.314747
v -0.178237 0.149657 -0.314747
v -0.185630 0.171267 -0.314747
v -0.190055 0.195179 -0.314747
v -0.191526 0.221399 -0.314747
v -0.190592 0.240273 -0.314747
v -0.187679 0.258517 -0.314747
v -0.182620 0.275938 -0.314747
v -0.175248 0.292343 -0.314747
v -0.165397 0.307540 -0.314747
v -0.152901 0.321336 -0.314747
v -0.137592 0.333539 -0.314747
v -0.119304 0.343954 -0.314747
v -0.097870 0.352391 -0.314747
v -0.073123 0.358656 -0.314747
v -0.044897 0.362556 -0.314747
v -0.013026 0.363899 -0.314747
v 0.121974 0.363899 -0.314747
v 0.121974 0.057899 -0.314747
v -0.062526 -0.395101 -0.314747
v -0.103072 -0.393375 -0.314747
v -0.138644 -0.388414 -0.314747
v -0.169518 -0.380546 -0.314747
v -0.195970 -0.370101 -0.314747
v -0.218277 -0.357406 -0.314747
v -0.236713 -0.342789 -0.314747
v -0.251556 -0.326578 -0.314747
v -0.263081 -0.309101 -0.314747
v -0.271565 -0.290687 -0.314747
v -0.277283 -0.271664 -0.314747
v -0.280511 -0.252359 -0.314747
v -0.281526 -0.233101 -0.314747
v -0.280020 -0.210436 -0.314747
v -0.275477 -0.189032 -0.314747
v -0.267862 -0.169023 -0.314747
v -0.257137 -0.150546 -0.314747
v -0.243266 -0.133735 -0.314747
v -0.226213 -0.118726 -0.314747
v -0.205942 -0.105655 -0.314747
v -0.182415 -0.094657 -0.314747
v -0.155596 -0.085867 -0.314747
v -0.125450 -0.079421 -0.314747
v -0.091938 -0.075454 -0.314747
v -0.055026 -0.074101 -0.314747
v 0.121974 -0.074101 -0.314747
v 0.121974 -0.395101 -0.314747
v -0.028026 0.495899 -0.214747
v -0.080544 0.493227 -0.214747
v -0.127922 0.485524 -0.214747
v -0.170268 0.473258 -0.214747
v -0.207692 0.456899 -0.214747
v -0.240304 0.436915 -0.214747
v -0.268213 0.413774 -0.214747
v -0.291528 0.387946 -0.214747
v -0.310359 0.359899 -0.214747
v -0.324815 0.330102 -0.214747
v -0.335005 0.299024 -0.214747
v -0.341039 0.267133 -0.214747
v -0.343026 0.234899 -0.214747
v -0.341990 0.209048 -0.214747
v -0.338866 0.184718 -0.214747
v -0.333627 0.161867 -0.214747
v -0.326248 0.140454 -0.214747
v -0.316702 0.120437 -0.214747
v -0.304963 0.101774 -0.214747
v -0.291006 0.084423 -0.214747
v -0.274804 0.068343 -0.214747
v -0.256331 0.053493 -0.214747
v -0.235561 0.039829 -0.214747
v -0.212468 0.027312 -0.214747
v -0.187026 0.015899 -0.214747
v -0.187026 0.012899 -0.214747
v -0.224007 0.004294 -0.214747
v -0.258373 -0.007191 -0.214747
v -0.290010 -0.021437 -0.214747
v -0.318804 -0.038323 -0.214747
v -0.344639 -0.057730 -0.214747
v -0.367401 -0.079539 -0.214747
v -0.386976 -0.103628 -0.214747
v -0.403248 -0.129879 -0.214747
v -0.416104 -0.158171 -0.214747
v -0.425429 -0.188386 -0.214747
v -0.431108 -0.220402 -0.214747
v -0.433026 -0.254101 -0.214747
v -0.431018 -0.285941 -0.214747
v -0.424839 -0.318073 -0.214747
v -0.414253 -0.349914 -0.214747
v -0.399026 -0.380879 -0.214747
v -0.378924 -0.410386 -0.214747
v -0.353713 -0.437851 -0.214747
v -0.323159 -0.462691 -0.214747
v -0.287026 -0.484323 -0.214747
v -0.245081 -0.502164 -0.214747
v -0.197088 -0.515629 -0.214747
v -0.142815 -0.524136 -0.214747
v -0.082026 -0.527101 -0.214747
v 0.268974 -0.527101 -0.214747
v 0.268974 0.495899 -0.214747
v 0.024474 0.057899 -0.214747
v -0.010341 0.059025 -0.214747
v -0.042047 0.062406 -0.214747
v -0.070659 0.068047 -0.214747
v -0.096193 0.075954 -0.214747
v -0.118664 0.086132 -0.214747
v -0.138088 0.098586 -0.214747
v -0.154482 0.113322 -0.214747
v -0.167859 0.130343 -0.214747
v -0.178237 0.149657 -0.214747
v -0.185630 0.171267 -0.214747
v -0.190055 0.195179 -0.214747
v -0.191526 0.221399 -0.214747
v -0.190592 0.240273 -0.214747
v -0.187679 0.258517 -0.214747
v -0.182620 0.275938 -0.214747
v -0.175248 0.292343 -0.214747
v -0.165397 0.307540 -0.214747
v -0.152901 0.321336 -0.214747
v -0.137592 0.333539 -0.214747
v -0.119304 0.343954 -0.214747
v -0.097870 0.352391 -0.214747
v -0.073123 0.358656 -0.214747
v -0.044897 0.362556 -0.214747
v -0.013026 0.363899 -0.214747
v 0.121974 0.363899 -0.214747
v 0.121974 0.057899 -0.214747
v -0.062526 -0.395101 -0.214747
v -0.103072 -0.393375 -0.214747
v -0.138644 -0.388414 -0.214747
v -0.169518 -0.380546 -0.214747
v -0.195970 -0.370101 -0.214747
v -0.218277 -0.357406 -0.214747
v -0.236713 -0.342789 -0.214747
v -0.251556 -0.326578 -0.214747
v -0.263081 -0.309101 -0.214747
v -0.271565 -0.290687 -0.214747
v -0.277283 -0.271664 -0.214747
v -0.280511 -0.252359 -0.214747
v -0.281526 -0.233101 -0.214747
v -0.280020 -0.210436 -0.214747
v -0.275477 -0.189032 -0.214747
v -0.267862 -0.169023 -0.214747
v -0.257137 -0.150546 -0.214747
v -0.243266 -0.133735 -0.214747
v -0.226213 -0.118726 -0.214747
v -0.205942 -0.105655 -0.214747
v -0.182415 -0.094657 -0.214747
v -0.155596 -0.085867 -0.214747
v -0.125450 -0.079421 -0.214747
v -0.091938 -0.075454 -0.214747
v -0.055026 -0.074101 -0.214747
v 0.121974 -0.074101 -0.214747
v 0.121974 -0.395101 -0.214747
v -0.028026 0.495899 -0.214747
v -0.028026 0.495899 -0.314747
v -0.080544 0.493227 -0.214747
v -0.080544 0.493227 -0.314747
v -0.127922 0.485524 -0.214747
v -0.127922 0.485524 -0.314747
v -0.170268 0.473258 -0.214747
v -0.170268 0.473258 -0.314747
v -0.207692 0.456899 -0.214747
v -0.207692 0.456899 -0.314747
v -0.240304 0.436915 -0.214747
v -0.240304 0.436915 -0.314747
v -0.268213 0.413774 -0.214747
v -0.268213 0.413774 -0.314747
v -0.291528 0.387946 -0.214747
v -0.291528 0.387946 -0.314747
v -0.310359 0.359899 -0.214747
v -0.310359 0.359899 -0.314747
v -0.324815 0.330102 -0.214747
v -0.324815 0.330102 -0.314747
v -0.335005 0.299024 -0.214747
v -0.335005 0.299024 -0.314747
v -0.341039 0.267133 -0.214747
v -0.341039 0.267133 -0.314747
v -0.343026 0.234899 -0.214747
v -0.343026 0.234899 -0.314747
v -0.341990 0.209048 -0.214747
v -0.341990 0.209048 -0.314747
v -0.338866 0.184718 -0.214747
v -0.338866 0.184718 -0.314747
v -0.333627 0.161867 -0.214747
v -0.333627 0.161867 -0.314747
v -0.326248 0.140454 -0.214747
v -0.326248 0.140454 -0.314747
v -0.316702 0.120437 -0.214747
v -0.316702 0.120437 -0.314747
v -0.304963 0.101774 -0.214747
v -0.304963 0.101774 -0.314747
v -0.291006 0.084423 -0.214747
v -0.291006 0.084423 -0.314747
v -0.274804 0.068343 -0.214747
v -0.274804 0.068343 -0.314747
v -0.256331 0.053493 -0.214747
v -0.256331 0.053493 -0.314747
v -0.235561 0.039829 -0.214747
v -0.235561 0.039829 -0.314747
v -0.212468 0.027312 -0.214747
v -0.212468 0.027312 -0.314747
v -0.187026 0.015899 -0.214747
v -0.187026 0.015899 -0.314747
v -0.187026 0.012899 -0.214747
v -0.187026 0.012899 -0.314747
v -0.224007 0.004294 -0.214747
v -0.224007 0.004294 -0.314747
v -0.258373 -0.007191 -0.214747
v -0.258373 -0.007191 -0.314747
v -0.290010 -0.021437 -0.214747
v -0.290010 -0.021437 -0.314747
v -0.318804 -0.038323 -0.214747
v -0.318804 -0.038323 -0.314747
v -0.344639 -0.057730 -0.214747
v -0.344639 -0.057730 -0.314747
v -0.367401 -0.079539 -0.214747
v -0.367401 -0.079539 -0.314747
v -0.386976 -0.103628 -0.214747
v -0.386976 -0.103628 -0.314747
v -0.403248 -0.129879 -0.214747
v -0.403248 -0.129879 -0.314747
v -0.416104 -0.158171 -0.214747
v -0.416104 -0.158171 -0.314747
v -0.425429 -0.188386 -0.214747
v -0.425429 -0.188386 -0.314747
v -0.431108 -0.220402 -0.214747
v -0.431108 -0.220402 -0.314747
v -0.433026 -0.254101 -0.214747
v -0.433026 -0.254101 -0.314747
v -0.431018 -0.285941 -0.214747
v -0.431018 -0.285941 -0.314747
v -0.424839 -0.318073 -0.214747
v -0.424839 -0.318073 -0.314747
v -0.414253 -0.349914 -0.214747
v -0.414253 -0.349914 -0.314747
v -0.399026 -0.380879 -0.214747
v -0.399026 -0.380879 -0.314747
v -0.378924 -0.410386 -0.214747
v -0.378924 -0.410386 -0.314747
v -0.353713 -0.437851 -0.214747
v -0.353713 -0.437851 -0.314747
v -0.323159 -0.462691 -0.214747
v -0.323159 -0.462691 -0.314747
v -0.287026 -0.484323 -0.214747
v -0.287026 -0.484323 -0.314747
v -0.245081 -0.502164 -0.214747
v -0.245081 -0.502164 -0.314747
v -0.197088 -0.515629 -0.214747
v -0.197088 -0.515629 -0.314747
v -0.142815 -0.524136 -0.214747
v -0.142815 -0.524136 -0.314747
v -0.082026 -0.527101 -0.214747
v -0.082026 -0.527101 -0.314747
v 0.268974 -0.527101 -0.214747
v 0.268974 -0.527101 -0.314747
v 0.268974 0.495899 -0.214747
v 0.268974 0.495899 -0.314747
v 0.024474 0.057899 -0.214747
v 0.024474 0.057899 -0.314747
v -0.010341 0.059025 -0.214747
v -0.010341 0.059025 -0.314747
v -0.042047 0.062406 -0.214747
v -0.042047 0.062406 -0.314747
v -0.070659 0.068047 -0.214747
v -0.070659 0.068047 -0.314747
v -0.096193 0.075954 -0.214747
v -0.096193 0.075954 -0.314747
v -0.118664 0.086132 -0.214747
v -0.118664 0.086132 -0.314747
v -0.138088 0.098586 -0.214747
v -0.138088 0.098586 -0.314747
v -0.154482 0.113322 -0.214747
v -0.154482 0.113322 -0.314747
v -0.167859 0.130343 -0.214747
v -0.167859 0.130343 -0.314747
v -0.178237 0.149657 -0.214747
v -0.178237 0.149657 -0.314747
v -0.185630 0.171267 -0.214747
v -0.185630 0.171267 -0.314747
v -0.190055 0.195179 -0.214747
v -0.190055 0.195179 -0.314747
v -0.191526 0.221399 -0.214747
v -0.191526 0.221399 -0.314747
v -0.190592 0.240273 -0.214747
v -0.190592 0.240273 -0.314747
v -0.187679 0.258517 -0.214747
v -0.187679 0.258517 -0.314747
v -0.182620 0.275938 -0.214747
v -0.182620 0.275938 -0.314747
v -0.175248 0.292343 -0.214747
v -0.175248 0.292343 -0.314747
v -0.165397 0.307540 -0.214747
v -0.165397 0.307540 -0.314747
v -0.152901 0.321336 -0.214747
v -0.152901 0.321336 -0.314747
v -0.137592 0.333539 -0.214747
v -0.137592 0.333539 -0.314747
v -0.119304 0.343954 -0.214747
v -0.119304 0.343954 -0.314747
v -0.097870 0.352391 -0.214747
v -0.097870 0.352391 -0.314747
v -0.073123 0.358656 -0.214747
v -0.073123 0.358656 -0.314747
v -0.044897 0.362556 -0.214747
v -0.044897 0.362556 -0.314747
v -0.013026 0.363899 -0.214747
v -0.013026 0.363899 -0.314747
v 0.121974 0.363899 -0.214747
v 0.121974 0.363899 -0.314747
v 0.121974 0.057899 -0.214747
v 0.121974 0.057899 -0.314747
v -0.062526 -0.395101 -0.214747
v -0.062526 -0.395101 -0.314747
v -0.103072 -0.393375 -0.214747
v -0.103072 -0.393375 -0.314747
v -0.138644 -0.388414 -0.214747
v -0.138644 -0.388414 -0.314747
v -0.169518 -0.380546 -0.214747
v -0.169518 -0.380546 -0.314747
v -0.195970 -0.370101 -0.214747
v -0.195970 -0.370101 -0.314747
v -0.218277 -0.357406 -0.214747
v -0.218277 -0.357406 -0.314747
v -0.236713 -0.342789 -0.214747
v -0.236713 -0.342789 -0.314747
v -0.251556 -0.326578 -0.214747
v -0.251556 -0.326578 -0.314747
v -0.263081 -0.309101 -0.214747
v -0.263081 -0.309101 -0.314747
v -0.271565 -0.290687 -0.214747
v -0.271565 -0.290687 -0.314747
v -0.277283 -0.271664 -0.214747
v -0.277283 -0.271664 -0.314747
v -0.280511 -0.252359 -0.214747
v -0.280511 -0.252359 -0.314747
v -0.281526 -0.233101 -0.214747
v -0.281526 -0.233101 -0.314747
v -0.280020 -0.210436 -0.214747
v -0.280020 -0.210436 -0.314747
v -0.275477 -0.189032 -0.214747
v -0.275477 -0.189032 -0.314747
v -0.267862 -0.169023 -0.214747
v -0.267862 -0.169023 -0.314747
v -0.257137 -0.150546 -0.214747
v -0.257137 -0.150546 -0.314747
v -0.243266 -0.133735 -0.214747
v -0.243266 -0.133735 -0.314747
v -0.226213 -0.118726 -0.214747
v -0.226213 -0.118726 -0.314747
v -0.205942 -0.105655 -0.214747
v -0.205942 -0.105655 -0.314747
v -0.182415 -0.094657 -0.214747
v -0.182415 -0.094657 -0.314747
v -0.155596 -0.085867 -0.214747
v -0.155596 -0.085867 -0.314747
v -0.125450 -0.079421 -0.214747
v -0.125450 -0.079421 -0.314747
v -0.091938 -0.075454 -0.214747
v -0.091938 -0.075454 -0.314747
v -0.055026 -0.074101 -0.214747
v -0.055026 -0.074101 -0.314747
v 0.121974 -0.074101 -0.214747
v 0.121974 -0.074101 -0.314747
v 0.121974 -0.395101 -0.214747
v 0.121974 -0.395101 -0.314747
v 1.250000 0.000000 -0.000000
v 0.875000 0.000000 -0.216506
v 0.875000 0.000000 0.216506
v 0.625000 -1.082532 -0.000000
v 0.437500 -0.757772 -0.216506
v 0.437500 -0.757772 0.216506
v -0.625000 -1.082532 0.000000
v -0.437500 -0.757772 -0.216506
v -0.437500 -0.757772 0.216506
v -1.250000 -0.000000 0.000000
v -0.875000 -0.000000 -0.216506
v -0.875000 -0.000000 0.216506
v -0.625000 1.082532 0.000000
v -0.437500 0.757772 -0.216506
v -0.437500 0.757772 0.216506
v 0.625000 1.082532 -0.000000
v 0.437500 0.757772 -0.216506
v 0.437500 0.757772 0.216506
vt 0.6422 0.4410
vt 0.4510 0.4724
vt 0.4222 0.4410
vt 0.4231 0.5050
vt 0.4240 0.5162
vt 0.4259 0.5263
vt 0.4288 0.5353
vt 0.4325 0.5432
vt 0.4370 0.5501
vt 0.4421 0.5559
vt 0.4478 0.5607
vt 0.4514 0.5014
vt 0.4540 0.5644
vt 0.5169 0.4722
vt 0.4521 0.5082
vt 0.4531 0.5141
vt 0.4605 0.5672
vt 0.4545 0.5193
vt 0.4564 0.5238
vt 0.4587 0.5277
vt 0.4613 0.5309
vt 0.4673 0.5690
vt 0.4642 0.5335
vt 0.4675 0.5355
vt 0.4742 0.5699
vt 0.4709 0.5370
vt 0.4746 0.5379
vt 0.4810 0.5698
vt 0.4784 0.5385
vt 0.4824 0.5386
vt 0.4864 0.5691
vt 0.4878 0.5382
vt 0.4914 0.5680
vt 0.4927 0.5373
vt 0.4960 0.5665
vt 0.4971 0.5358
vt 0.5002 0.5645
vt 0.5009 0.5338
vt 0.5040 0.5621
vt 0.5044 0.5312
vt 0.5075 0.5593
vt 0.5073 0.5282
vt 0.5107 0.5561
vt 0.5099 0.5246
vt 0.5120 0.5205
vt 0.5137 0.5525
vt 0.5138 0.5158
vt 0.5164 0.5484
vt 0.5152 0.5107
vt 0.5163 0.5049
vt 0.5171 0.4927
vt 0.5447 0.4722
vt 0.5193 0.5447
vt 0.5225 0.5395
vt 0.5262 0.5321
vt 0.5272 0.5328
vt 0.5288 0.5409
vt 0.5310 0.5484
vt 0.5338 0.5554
vt 0.5372 0.5618
vt 0.5411 0.5675
vt 0.5448 0.5091
vt 0.5455 0.5725
vt 0.6133 0.4721
vt 0.5455 0.5168
vt 0.5464 0.5236
vt 0.5476 0.5298
vt 0.5503 0.5768
vt 0.5494 0.5353
vt 0.5516 0.5401
vt 0.5555 0.5804
vt 0.5542 0.5443
vt 0.5573 0.5479
vt 0.5612 0.5834
vt 0.5607 0.5508
vt 0.5645 0.5531
vt 0.5674 0.5856
vt 0.5686 0.5548
vt 0.5740 0.5871
vt 0.5730 0.5559
vt 0.5777 0.5564
vt 0.5810 0.5878
vt 0.5818 0.5563
vt 0.5858 0.5558
vt 0.5877 0.5877
vt 0.5898 0.5547
vt 0.5945 0.5867
vt 0.5937 0.5531
vt 0.5974 0.5509
vt 0.6013 0.5847
vt 0.6009 0.5479
vt 0.6040 0.5442
vt 0.6079 0.5817
vt 0.6068 0.5397
vt 0.6091 0.5344
vt 0.6109 0.5281
vt 0.6143 0.5777
vt 0.6122 0.5208
vt 0.6128 0.5110
vt 0.6202 0.5725
vt 0.6256 0.5661
vt 0.6304 0.5586
vt 0.6344 0.5498
vt 0.6375 0.5397
vt 0.6395 0.5282
vt 0.6418 0.4970
vt 0.5206 0.5865
vt 0.6378 0.4073
vt 0.5402 0.6288
vt 0.4765 0.6019
vt 0.4687 0.5944
vt 0.4627 0.5872
vt 0.4583 0.5801
vt 0.4553 0.5732
vt 0.4534 0.5663
vt 0.4527 0.5596
vt 0.4530 0.5532
vt 0.4944 0.5723
vt 0.4559 0.5486
vt 0.5519 0.5209
vt 0.4822 0.5636
vt 0.4796 0.5602
vt 0.4544 0.5430
vt 0.4775 0.5569
vt 0.4762 0.5539
vt 0.4753 0.5509
vt 0.4749 0.5479
vt 0.4529 0.5374
vt 0.4747 0.5449
vt 0.4749 0.5417
vt 0.4521 0.5315
vt 0.4753 0.5384
vt 0.4760 0.5351
vt 0.4522 0.5253
vt 0.4770 0.5316
vt 0.4784 0.5280
vt 0.4528 0.5199
vt 0.4806 0.5233
vt 0.4541 0.5147
vt 0.4833 0.5190
vt 0.4561 0.5098
vt 0.4864 0.5152
vt 0.4587 0.5053
vt 0.4899 0.5119
vt 0.4619 0.5011
vt 0.4939 0.5094
vt 0.4657 0.4974
vt 0.4982 0.5075
vt 0.4700 0.4942
vt 0.5029 0.5064
vt 0.5080 0.5060
vt 0.4750 0.4915
vt 0.5135 0.5064
vt 0.4804 0.4893
vt 0.5194 0.5075
vt 0.5258 0.5093
vt 0.5327 0.5116
vt 0.5645 0.4913
vt 0.4878 0.4875
vt 0.4956 0.4861
vt 0.5039 0.4850
vt 0.5069 0.4835
vt 0.5044 0.4791
vt 0.5025 0.4748
vt 0.5012 0.4704
vt 0.5005 0.4661
vt 0.5003 0.4618
vt 0.5329 0.4757
vt 0.5041 0.4601
vt 0.5950 0.4258
vt 0.5198 0.4672
vt 0.5176 0.4641
vt 0.5161 0.4614
vt 0.4996 0.4569
vt 0.5145 0.4588
vt 0.5132 0.4562
vt 0.4952 0.4534
vt 0.5120 0.4537
vt 0.5112 0.4510
vt 0.4911 0.4493
vt 0.5104 0.4482
vt 0.5099 0.4451
vt 0.4873 0.4443
vt 0.5095 0.4416
vt 0.4843 0.4383
vt 0.5094 0.4379
vt 0.5098 0.4338
vt 0.4823 0.4313
vt 0.5105 0.4302
vt 0.5116 0.4266
vt 0.4815 0.4240
vt 0.5132 0.4230
vt 0.4821 0.4162
vt 0.5154 0.4197
vt 0.5182 0.4165
vt 0.4843 0.4082
vt 0.5216 0.4139
vt 0.5257 0.4117
vt 0.4880 0.4005
vt 0.5306 0.4103
vt 0.5362 0.4095
vt 0.5427 0.4096
vt 0.4931 0.3935
vt 0.5499 0.4108
vt 0.5580 0.4130
vt 0.5001 0.3891
vt 0.5080 0.3857
vt 0.5170 0.3832
vt 0.5270 0.3820
vt 0.5380 0.3820
vt 0.5501 0.3834
vt 0.5634 0.3856
vt 0.6009 0.4121
vt 0.4103 0.4440
vt 0.3818 0.4124
vt 0.3818 0.4765
vt 0.3827 0.4878
vt 0.3847 0.4979
vt 0.3876 0.5069
vt 0.3913 0.5149
vt 0.3959 0.5217
vt 0.4010 0.5275
vt 0.4067 0.5323
vt 0.4106 0.4729
vt 0.4129 0.5361
vt 0.4760 0.4436
vt 0.4113 0.4797
vt 0.4122 0.4857
vt 0.4195 0.5389
vt 0.4137 0.4909
vt 0.4155 0.4954
vt 0.4178 0.4992
vt 0.4204 0.5024
vt 0.4264 0.5407
vt 0.4234 0.5050
vt 0.4266 0.5070
vt 0.4333 0.5416
vt 0.4301 0.5085
vt 0.4338 0.5095
vt 0.4402 0.5415
vt 0.4376 0.5100
vt 0.4415 0.5102
vt 0.4456 0.5408
vt 0.4470 0.5098
vt 0.4506 0.5397
vt 0.4519 0.5088
vt 0.4552 0.5381
vt 0.4563 0.5073
vt 0.4595 0.5361
vt 0.4602 0.5053
vt 0.4633 0.5337
vt 0.4636 0.5027
vt 0.4668 0.5308
vt 0.4665 0.4996
vt 0.4700 0.5276
vt 0.4691 0.4961
vt 0.4712 0.4919
vt 0.4730 0.5239
vt 0.4730 0.4872
vt 0.4757 0.5199
vt 0.4744 0.4821
vt 0.4755 0.4763
vt 0.4763 0.4641
vt 0.5037 0.4436
vt 0.4786 0.5161
vt 0.4818 0.5109
vt 0.4855 0.5035
vt 0.4865 0.5042
vt 0.4881 0.5122
vt 0.4903 0.5197
vt 0.4931 0.5266
vt 0.4965 0.5330
vt 0.5005 0.5388
vt 0.5040 0.4804
vt 0.5048 0.5437
vt 0.5722 0.4432
vt 0.5047 0.4880
vt 0.5056 0.4948
vt 0.5069 0.5010
vt 0.5096 0.5479
vt 0.5086 0.5065
vt 0.5108 0.5113
vt 0.5149 0.5515
vt 0.5135 0.5155
vt 0.5165 0.5190
vt 0.5206 0.5545
vt 0.5200 0.5220
vt 0.5238 0.5242
vt 0.5268 0.5567
vt 0.5279 0.5259
vt 0.5334 0.5582
vt 0.5323 0.5270
vt 0.5370 0.5274
vt 0.5404 0.5588
vt 0.5410 0.5273
vt 0.5450 0.5268
vt 0.5471 0.5587
vt 0.5490 0.5257
vt 0.5539 0.5576
vt 0.5529 0.5241
vt 0.5566 0.5219
vt 0.5606 0.5556
vt 0.5600 0.5189
vt 0.5632 0.5152
vt 0.5672 0.5526
vt 0.5659 0.5107
vt 0.5682 0.5054
vt 0.5700 0.4991
vt 0.5735 0.5486
vt 0.5712 0.4918
vt 0.5718 0.4821
vt 0.5794 0.5434
vt 0.5848 0.5370
vt 0.5895 0.5295
vt 0.5935 0.5207
vt 0.5965 0.5106
vt 0.5986 0.4991
vt 0.6007 0.4680
vt 0.4124 0.4739
vt 0.5917 0.5911
vt 0.3702 0.4935
vt 0.3971 0.4298
vt 0.4045 0.4220
vt 0.4117 0.4160
vt 0.4188 0.4116
vt 0.4257 0.4086
vt 0.4326 0.4068
vt 0.4392 0.4061
vt 0.4456 0.4063
vt 0.4266 0.4477
vt 0.4503 0.4093
vt 0.4780 0.5052
vt 0.4353 0.4356
vt 0.4387 0.4330
vt 0.4559 0.4077
vt 0.4419 0.4308
vt 0.4450 0.4295
vt 0.4480 0.4287
vt 0.4510 0.4283
vt 0.4615 0.4062
vt 0.4540 0.4281
vt 0.4572 0.4282
vt 0.4674 0.4054
vt 0.4605 0.4286
vt 0.4639 0.4293
vt 0.4736 0.4054
vt 0.4673 0.4303
vt 0.4709 0.4317
vt 0.4790 0.4061
vt 0.4757 0.4339
vt 0.4842 0.4074
vt 0.4800 0.4366
vt 0.4891 0.4093
vt 0.4839 0.4397
vt 0.4937 0.4119
vt 0.4871 0.4432
vt 0.4979 0.4151
vt 0.4896 0.4472
vt 0.5016 0.4189
vt 0.4915 0.4515
vt 0.5048 0.4233
vt 0.4926 0.4562
vt 0.4930 0.4613
vt 0.5076 0.4283
vt 0.4927 0.4668
vt 0.5098 0.4337
vt 0.4916 0.4727
vt 0.4898 0.4791
vt 0.4875 0.4860
vt 0.5077 0.5178
vt 0.5115 0.4411
vt 0.5130 0.4489
vt 0.5141 0.4572
vt 0.5155 0.4602
vt 0.5199 0.4577
vt 0.5243 0.4558
vt 0.5286 0.4545
vt 0.5329 0.4538
vt 0.5372 0.4536
vt 0.5233 0.4862
vt 0.5389 0.4574
vt 0.5732 0.5483
vt 0.5318 0.4731
vt 0.5349 0.4709
vt 0.5376 0.4694
vt 0.5421 0.4529
vt 0.5402 0.4678
vt 0.5428 0.4665
vt 0.5456 0.4486
vt 0.5453 0.4653
vt 0.5480 0.4645
vt 0.5497 0.4444
vt 0.5508 0.4637
vt 0.5539 0.4632
vt 0.5547 0.4406
vt 0.5574 0.4628
vt 0.5607 0.4376
vt 0.5611 0.4627
vt 0.5652 0.4631
vt 0.5677 0.4356
vt 0.5688 0.4638
vt 0.5724 0.4649
vt 0.5750 0.4349
vt 0.5760 0.4665
vt 0.5828 0.4355
vt 0.5793 0.4687
vt 0.5825 0.4715
vt 0.5907 0.4376
vt 0.5851 0.4749
vt 0.5873 0.4791
vt 0.5985 0.4413
vt 0.5887 0.4839
vt 0.5895 0.4895
vt 0.5894 0.4960
vt 0.6055 0.4464
vt 0.5882 0.5032
vt 0.5860 0.5114
vt 0.6098 0.4534
vt 0.6133 0.4614
vt 0.6157 0.4703
vt 0.6170 0.4803
vt 0.6170 0.4913
vt 0.6156 0.5034
vt 0.6134 0.5167
vt 0.6461 0.0827
vt 0.9097 0.0827
vt 0.8702 0.1650
vt 0.6856 0.1650
vt 0.6856 0.0004
vt 0.8702 0.0004
vt 0.8841 0.7393
vt 0.6205 0.7392
vt 0.6601 0.6569
vt 0.8446 0.6570
vt 0.8445 0.8216
vt 0.6600 0.8216
vt 0.9181 0.0896
vt 0.6545 0.0896
vt 0.6940 0.0073
vt 0.8786 0.0073
vt 0.8786 0.1719
vt 0.6940 0.1719
vt 0.8870 0.7393
vt 0.6234 0.7393
vt 0.6629 0.6570
vt 0.8474 0.6570
vt 0.8474 0.8216
vt 0.6629 0.8216
vt 0.6506 0.0876
vt 0.9142 0.0876
vt 0.8746 0.1700
vt 0.6901 0.1700
vt 0.6901 0.0053
vt 0.8746 0.0053
vt 0.6178 0.7353
vt 0.8814 0.7353
vt 0.8418 0.8176
vt 0.6573 0.8176
vt 0.2850 0.0208
vt 0.3772 0.1807
vt 0.2849 0.3405
vt 0.1004 0.3404
vt 0.0082 0.1806
vt 0.1005 0.0208
vt 0.6573 0.6530
vt 0.8418 0.6530
vt 0.2771 0.3200
vt 0.0926 0.3200
vt 0.0004 0.1601
vt 0.0927 0.0004
vt 0.2772 0.0004
vt 0.3694 0.1603
vt 0.3802 0.5260
vt 0.3756 0.5149
vt 0.3959 0.5082
vt 0.3996 0.5178
vt 0.3721 0.5041
vt 0.3933 0.4992
vt 0.3698 0.4935
vt 0.3917 0.4908
vt 0.3687 0.4833
vt 0.3911 0.4828
vt 0.3686 0.4733
vt 0.3913 0.4754
vt 0.3696 0.4637
vt 0.3923 0.4683
vt 0.3716 0.4543
vt 0.3941 0.4616
vt 0.3746 0.4453
vt 0.3967 0.4554
vt 0.3787 0.4366
vt 0.4000 0.4495
vt 0.3839 0.4283
vt 0.4039 0.4437
vt 0.3901 0.4205
vt 0.4085 0.4385
vt 0.3974 0.4134
vt 0.4136 0.4337
vt 0.4038 0.4086
vt 0.4181 0.4302
vt 0.4102 0.4046
vt 0.4226 0.4272
vt 0.4166 0.4014
vt 0.4271 0.4248
vt 0.4230 0.3988
vt 0.4317 0.4229
vt 0.4295 0.3968
vt 0.4363 0.4216
vt 0.4360 0.3953
vt 0.4412 0.4208
vt 0.4427 0.3944
vt 0.4462 0.4206
vt 0.4495 0.3938
vt 0.4516 0.4210
vt 0.4566 0.3936
vt 0.4574 0.4220
vt 0.4640 0.3937
vt 0.4642 0.4236
vt 0.4718 0.3938
vt 0.4721 0.4258
vt 0.4799 0.3937
vt 0.4821 0.4288
vt 0.4809 0.3936
vt 0.4834 0.4290
vt 0.4885 0.3927
vt 0.4948 0.4219
vt 0.4964 0.3905
vt 0.5036 0.4171
vt 0.5056 0.3874
vt 0.5121 0.4136
vt 0.5150 0.3843
vt 0.5203 0.4110
vt 0.5248 0.3818
vt 0.5284 0.4092
vt 0.5350 0.3800
vt 0.5364 0.4082
vt 0.5455 0.3792
vt 0.5444 0.4081
vt 0.5562 0.3796
vt 0.5523 0.4087
vt 0.5673 0.3812
vt 0.5601 0.4103
vt 0.5784 0.3843
vt 0.5678 0.4127
vt 0.5895 0.3890
vt 0.5753 0.4162
vt 0.6003 0.3955
vt 0.5826 0.4207
vt 0.6095 0.4030
vt 0.5889 0.4257
vt 0.6178 0.4119
vt 0.5946 0.4317
vt 0.6250 0.4221
vt 0.5995 0.4384
vt 0.6307 0.4334
vt 0.6034 0.4458
vt 0.6347 0.4457
vt 0.6062 0.4540
vt 0.6368 0.4589
vt 0.6078 0.4627
vt 0.6368 0.4726
vt 0.6080 0.4719
vt 0.6345 0.4867
vt 0.6067 0.4816
vt 0.6297 0.5009
vt 0.6036 0.4916
vt 0.6223 0.5148
vt 0.5988 0.5019
vt 0.6124 0.5280
vt 0.5922 0.5122
vt 0.5997 0.5398
vt 0.5814 0.5258
vt 0.5522 0.5797
vt 0.5456 0.5647
vt 0.4121 0.5689
vt 0.4203 0.5533
vt 0.5371 0.5271
vt 0.5425 0.5323
vt 0.5265 0.5542
vt 0.5172 0.5469
vt 0.5473 0.5359
vt 0.5355 0.5593
vt 0.5522 0.5386
vt 0.5440 0.5627
vt 0.5568 0.5406
vt 0.5520 0.5648
vt 0.5610 0.5418
vt 0.5595 0.5657
vt 0.5649 0.5424
vt 0.5664 0.5657
vt 0.5686 0.5424
vt 0.5729 0.5649
vt 0.5720 0.5418
vt 0.5791 0.5633
vt 0.5753 0.5405
vt 0.5851 0.5609
vt 0.5785 0.5387
vt 0.5910 0.5575
vt 0.5815 0.5364
vt 0.5967 0.5530
vt 0.5843 0.5334
vt 0.6020 0.5472
vt 0.5862 0.5311
vt 0.6050 0.5428
vt 0.5878 0.5285
vt 0.6076 0.5383
vt 0.5891 0.5259
vt 0.6096 0.5336
vt 0.5900 0.5231
vt 0.6112 0.5289
vt 0.5906 0.5202
vt 0.6123 0.5239
vt 0.5908 0.5171
vt 0.6129 0.5187
vt 0.5906 0.5138
vt 0.6131 0.5132
vt 0.5899 0.5103
vt 0.6127 0.5072
vt 0.5887 0.5064
vt 0.6115 0.5006
vt 0.5868 0.5023
vt 0.6093 0.4933
vt 0.5840 0.4978
vt 0.6058 0.4854
vt 0.5802 0.4932
vt 0.6006 0.4769
vt 0.5635 0.4816
vt 0.5593 0.4527
vt 0.5278 0.5099
vt 0.4970 0.5134
vt 0.5234 0.4543
vt 0.5332 0.4624
vt 0.5155 0.4816
vt 0.5087 0.4770
vt 0.5406 0.4706
vt 0.5208 0.4865
vt 0.5461 0.4786
vt 0.5248 0.4914
vt 0.5501 0.4862
vt 0.5281 0.4959
vt 0.5528 0.4933
vt 0.5304 0.5001
vt 0.5544 0.5001
vt 0.5318 0.5040
vt 0.5551 0.5064
vt 0.5326 0.5076
vt 0.5551 0.5125
vt 0.5328 0.5111
vt 0.5545 0.5183
vt 0.5324 0.5144
vt 0.5532 0.5239
vt 0.5316 0.5176
vt 0.5513 0.5292
vt 0.5305 0.5206
vt 0.5489 0.5342
vt 0.5290 0.5234
vt 0.5453 0.5400
vt 0.5269 0.5265
vt 0.5411 0.5450
vt 0.5245 0.5292
vt 0.5365 0.5493
vt 0.5217 0.5315
vt 0.5313 0.5530
vt 0.5186 0.5335
vt 0.5257 0.5562
vt 0.5151 0.5351
vt 0.5194 0.5588
vt 0.5111 0.5363
vt 0.5124 0.5608
vt 0.5067 0.5370
vt 0.5046 0.5620
vt 0.5018 0.5372
vt 0.4960 0.5623
vt 0.4963 0.5369
vt 0.4866 0.5614
vt 0.4903 0.5357
vt 0.4764 0.5591
vt 0.4838 0.5337
vt 0.4655 0.5551
vt 0.4770 0.5305
vt 0.4245 0.5136
vt 0.4520 0.5056
vt 0.4683 0.4428
vt 0.4803 0.4676
vt 0.3997 0.4516
vt 0.3978 0.4655
vt 0.3735 0.4643
vt 0.3758 0.4501
vt 0.3975 0.4751
vt 0.3733 0.4776
vt 0.3985 0.4839
vt 0.3750 0.4901
vt 0.4006 0.4918
vt 0.3784 0.5014
vt 0.4038 0.4988
vt 0.3833 0.5114
vt 0.4078 0.5049
vt 0.3894 0.5201
vt 0.4125 0.5102
vt 0.3965 0.5273
vt 0.4179 0.5147
vt 0.4042 0.5331
vt 0.4239 0.5186
vt 0.4122 0.5376
vt 0.4303 0.5218
vt 0.4202 0.5409
vt 0.4373 0.5232
vt 0.4276 0.5435
vt 0.4453 0.5259
vt 0.4346 0.5459
vt 0.4509 0.5284
vt 0.4397 0.5481
vt 0.4559 0.5310
vt 0.4440 0.5502
vt 0.4604 0.5340
vt 0.4479 0.5525
vt 0.4646 0.5373
vt 0.4515 0.5549
vt 0.4683 0.5408
vt 0.4548 0.5574
vt 0.4716 0.5445
vt 0.4580 0.5601
vt 0.4744 0.5484
vt 0.4610 0.5628
vt 0.4768 0.5523
vt 0.4642 0.5656
vt 0.4788 0.5560
vt 0.4674 0.5685
vt 0.4805 0.5595
vt 0.4709 0.5712
vt 0.4817 0.5625
vt 0.4747 0.5736
vt 0.4823 0.5646
vt 0.4797 0.5753
vt 0.4826 0.5647
vt 0.4802 0.5754
vt 0.4848 0.5621
vt 0.4867 0.5750
vt 0.4885 0.5589
vt 0.4928 0.5736
vt 0.4932 0.5552
vt 0.4987 0.5718
vt 0.4987 0.5517
vt 0.5044 0.5700
vt 0.5049 0.5485
vt 0.5102 0.5686
vt 0.5116 0.5458
vt 0.5159 0.5675
vt 0.5188 0.5437
vt 0.5219 0.5669
vt 0.5262 0.5424
vt 0.5282 0.5669
vt 0.5336 0.5420
vt 0.5352 0.5674
vt 0.5426 0.5424
vt 0.5430 0.5683
vt 0.5504 0.5436
vt 0.5519 0.5693
vt 0.5594 0.5438
vt 0.5619 0.5695
vt 0.5671 0.5430
vt 0.5716 0.5686
vt 0.5741 0.5415
vt 0.5815 0.5665
vt 0.5809 0.5390
vt 0.5914 0.5630
vt 0.5876 0.5355
vt 0.6011 0.5582
vt 0.5941 0.5309
vt 0.6105 0.5518
vt 0.6002 0.5251
vt 0.6194 0.5439
vt 0.6058 0.5181
vt 0.6275 0.5344
vt 0.6109 0.5097
vt 0.6348 0.5231
vt 0.6152 0.4999
vt 0.6410 0.5100
vt 0.6184 0.4886
vt 0.6457 0.4949
vt 0.6202 0.4757
vt 0.6485 0.4775
vt 0.6200 0.4613
vt 0.6485 0.4579
vt 0.5956 0.3982
vt 0.6085 0.3722
vt 0.4078 0.4127
vt 0.3922 0.3940
vt 0.5519 0.4927
vt 0.5421 0.4995
vt 0.5264 0.4776
vt 0.5319 0.4727
vt 0.5328 0.5041
vt 0.5215 0.4808
vt 0.5241 0.5070
vt 0.5167 0.4832
vt 0.5161 0.5086
vt 0.5122 0.4847
vt 0.5087 0.5092
vt 0.5079 0.4855
vt 0.5019 0.5089
vt 0.5039 0.4858
vt 0.4956 0.5079
vt 0.5001 0.4855
vt 0.4895 0.5063
vt 0.4966 0.4847
vt 0.4835 0.5039
vt 0.4932 0.4834
vt 0.4776 0.5006
vt 0.4900 0.4816
vt 0.4719 0.4961
vt 0.4869 0.4792
vt 0.4665 0.4903
vt 0.4840 0.4763
vt 0.4634 0.4860
vt 0.4820 0.4739
vt 0.4608 0.4814
vt 0.4803 0.4715
vt 0.4588 0.4768
vt 0.4790 0.4689
vt 0.4572 0.4720
vt 0.4781 0.4662
vt 0.4561 0.4670
vt 0.4777 0.4634
vt 0.4555 0.4618
vt 0.4776 0.4605
vt 0.4555 0.4562
vt 0.4781 0.4573
vt 0.4562 0.4501
vt 0.4791 0.4539
vt 0.4578 0.4435
vt 0.4807 0.4502
vt 0.4605 0.4363
vt 0.4831 0.4462
vt 0.4645 0.4286
vt 0.4864 0.4418
vt 0.4702 0.4205
vt 0.4904 0.4372
vt 0.5101 0.3983
vt 0.5112 0.4271
vt 0.5731 0.4561
vt 0.5421 0.4592
vt 0.4677 0.4638
vt 0.4614 0.4691
vt 0.4418 0.4523
vt 0.4508 0.4436
vt 0.4567 0.4744
vt 0.4351 0.4610
vt 0.4531 0.4796
vt 0.4303 0.4695
vt 0.4506 0.4843
vt 0.4271 0.4775
vt 0.4490 0.4888
vt 0.4253 0.4850
vt 0.4481 0.4930
vt 0.4245 0.4920
vt 0.4478 0.4969
vt 0.4245 0.4985
vt 0.4479 0.5005
vt 0.4252 0.5047
vt 0.4485 0.5040
vt 0.4265 0.5104
vt 0.4495 0.5072
vt 0.4283 0.5159
vt 0.4509 0.5102
vt 0.4307 0.5211
vt 0.4525 0.5131
vt 0.4336 0.5259
vt 0.4547 0.5161
vt 0.4378 0.5313
vt 0.4572 0.5187
vt 0.4424 0.5359
vt 0.4600 0.5208
vt 0.4475 0.5397
vt 0.4631 0.5225
vt 0.4530 0.5428
vt 0.4665 0.5237
vt 0.4589 0.5452
vt 0.4704 0.5244
vt 0.4654 0.5470
vt 0.4747 0.5245
vt 0.4725 0.5481
vt 0.4795 0.5239
vt 0.4802 0.5483
vt 0.4849 0.5226
vt 0.4887 0.5476
vt 0.4908 0.5209
vt 0.4978 0.5458
vt 0.4970 0.5182
vt 0.5078 0.5426
vt 0.5035 0.5144
vt 0.5184 0.5377
vt 0.5265 0.4920
vt 0.5567 0.4908
vt 0.4986 0.4537
vt 0.5029 0.4273
vn -0.0000 -0.0000 1.0000
vn 0.0000 0.0000 -1.0000
vn 0.4804 -0.2774 -0.8321
vn 0.4804 -0.2774 0.8321
vn -0.0000 -0.5547 -0.8321
vn 0.0000 -0.5547 0.8321
vn -0.4804 -0.2774 -0.8321
vn -0.4804 -0.2774 0.8321
vn -0.4804 0.2773 -0.8321
vn -0.4804 0.2774 0.8321
vn -0.0000 0.5547 -0.8321
vn 0.0000 0.5547 0.8321
vn 0.4804 0.2774 -0.8321
vn 0.4804 0.2774 0.8321
vn 0.0254 0.9997 0.0000
vn 0.1058 0.9944 0.0000
vn 0.2197 0.9756 0.0000
vn 0.3401 0.9404 0.0000
vn 0.4626 0.8865 0.0000
vn 0.5818 0.8133 0.0000
vn 0.6921 0.7218 0.0000
vn 0.7883 0.6153 0.0000
vn 0.8671 0.4982 0.0000
vn 0.9271 0.3749 0.0000
vn 0.9684 0.2492 0.0000
vn 0.9923 0.1239 0.0000
vn 0.9999 0.0107 0.0000
vn 0.9965 -0.0838 0.0000
vn 0.9844 -0.1756 0.0000
vn 0.9614 -0.2750 0.0000
vn 0.9255 -0.3787 0.0000
vn 0.8760 -0.4822 0.0000
vn 0.8142 -0.5806 0.0000
vn 0.7429 -0.6693 0.0000
vn 0.6664 -0.7456 0.0000
vn 0.5887 -0.8083 0.0000
vn 0.5135 -0.8581 0.0000
vn 0.4432 -0.8964 0.0000
vn 0.8394 -0.5434 0.0000
vn 0.7831 0.6218 0.0000
vn 0.2721 0.9622 0.0000
vn 0.3642 0.9313 0.0000
vn 0.4589 0.8885 0.0000
vn 0.5541 0.8324 0.0000
vn 0.6474 0.7622 0.0000
vn 0.7353 0.6777 0.0000
vn 0.8147 0.5799 0.0000
vn 0.8820 0.4712 0.0000
vn 0.9348 0.3550 0.0000
vn 0.9719 0.2352 0.0000
vn 0.9933 0.1159 0.0000
vn 1.0000 -0.0031 0.0000
vn 0.9920 -0.1261 0.0000
vn 0.9675 -0.2527 0.0000
vn 0.9253 -0.3793 0.0000
vn 0.8640 -0.5034 0.0000
vn 0.7836 -0.6212 0.0000
vn 0.6856 -0.7280 0.0000
vn 0.5737 -0.8191 0.0000
vn 0.4536 -0.8912 0.0000
vn 0.3314 -0.9434 0.0000
vn 0.2129 -0.9771 0.0000
vn 0.1019 -0.9948 0.0000
vn 0.0244 -0.9997 0.0000
vn -0.7071 -0.7071 0.0000
vn -0.7071 0.7071 0.0000
vn -0.0161 0.9998 0.0000
vn -0.0692 0.9976 0.0000
vn -0.1499 0.9887 0.0000
vn -0.2449 0.9695 0.0000
vn -0.3549 0.9349 0.0000
vn -0.4774 0.8787 0.0000
vn -0.6061 0.7954 0.0000
vn -0.7301 0.6833 0.0000
vn -0.8367 0.5477 0.0000
vn -0.9166 0.3998 0.0000
vn -0.9673 0.2535 0.0000
vn -0.9929 0.1192 0.0000
vn -1.0000 0.0033 0.0000
vn -0.9946 -0.1037 0.0000
vn -0.9758 -0.2187 0.0000
vn -0.9385 -0.3452 0.0000
vn -0.8782 -0.4783 0.0000
vn -0.7927 -0.6096 0.0000
vn -0.6844 -0.7290 0.0000
vn -0.5608 -0.8279 0.0000
vn -0.4317 -0.9020 0.0000
vn -0.3064 -0.9519 0.0000
vn -0.1914 -0.9815 0.0000
vn -0.0896 -0.9960 0.0000
vn -0.0210 -0.9998 0.0000
vn 0.7071 -0.7071 0.0000
vn 0.7071 0.7071 0.0000
vn -0.0213 0.9998 0.0000
vn -0.0904 0.9959 0.0000
vn -0.1928 0.9812 0.0000
vn -0.3077 0.9515 0.0000
vn -0.4320 0.9019 0.0000
vn -0.5596 0.8288 0.0000
vn -0.6815 0.7317 0.0000
vn -0.7886 0.6148 0.0000
vn -0.8740 0.4859 0.0000
vn -0.9352 0.3540 0.0000
vn -0.9739 0.2268 0.0000
vn -0.9940 0.1090 0.0000
vn -1.0000 -0.0068 0.0000
vn -0.9905 -0.1373 0.0000
vn -0.9593 -0.2825 0.0000
vn -0.9027 -0.4302 0.0000
vn -0.8209 -0.5711 0.0000
vn -0.7183 -0.6957 0.0000
vn -0.6030 -0.7978 0.0000
vn -0.4838 -0.8751 0.0000
vn -0.3681 -0.9297 0.0000
vn -0.2606 -0.9654 0.0000
vn -0.1635 -0.9865 0.0000
vn -0.0771 -0.9970 0.0000
vn -0.0183 -0.9998 0.0000
vn -0.0254 0.9997 0.0000
vn -0.1058 0.9944 0.0000
vn -0.2197 0.9756 0.0000
vn -0.3401 0.9404 0.0000
vn -0.4626 0.8865 0.0000
vn -0.5818 0.8133 0.0000
vn -0.6921 0.7218 0.0000
vn -0.7883 0.6153 0.0000
vn -0.8671 0.4982 0.0000
vn -0.9271 0.3749 0.0000
vn -0.9684 0.2492 0.0000
vn -0.9923 0.1239 0.0000
vn -0.9999 0.0107 0.0000
vn -0.9965 -0.0838 0.0000
vn -0.9844 -0.1756 0.0000
vn -0.9614 -0.2750 0.0000
vn -0.9255 -0.3787 0.0000
vn -0.8760 -0.4822 0.0000
vn -0.8142 -0.5806 0.0000
vn -0.7429 -0.6693 0.0000
vn -0.6664 -0.7456 0.0000
vn -0.5887 -0.8083 0.0000
vn -0.5135 -0.8581 0.0000
vn -0.4432 -0.8964 0.0000
vn -0.8394 -0.5434 0.0000
vn -0.7831 0.6218 0.0000
vn -0.2721 0.9622 0.0000
vn -0.3642 0.9313 0.0000
vn -0.4589 0.8885 0.0000
vn -0.5541 0.8324 0.0000
vn -0.6474 0.7622 0.0000
vn -0.7353 0.6777 0.0000
vn -0.8147 0.5799 0.0000
vn -0.8820 0.4712 0.0000
vn -0.9348 0.3550 0.0000
vn -0.9719 0.2352 0.0000
vn -0.9933 0.1159 0.0000
vn -1.0000 -0.0031 0.0000
vn -0.9920 -0.1261 0.0000
vn -0.9675 -0.2527 0.0000
vn -0.9253 -0.3793 0.0000
vn -0.8640 -0.5034 0.0000
vn -0.7836 -0.6212 0.0000
vn -0.6856 -0.7280 0.0000
vn -0.5737 -0.8191 0.0000
vn -0.4536 -0.8912 0.0000
vn -0.3314 -0.9434 0.0000
vn -0.2129 -0.9771 0.0000
vn -0.1019 -0.9948 0.0000
vn -0.0244 -0.9997 0.0000
vn 0.0161 0.9998 0.0000
vn 0.0692 0.9976 0.0000
vn 0.1499 0.9887 0.0000
vn 0.2450 0.9695 0.0000
vn 0.3549 0.9349 0.0000
vn 0.4774 0.8787 0.0000
vn 0.6061 0.7954 0.0000
vn 0.7301 0.6833 0.0000
vn 0.8367 0.5477 0.0000
vn 0.9166 0.3998 0.0000
vn 0.9673 0.2535 0.0000
vn 0.9929 0.1192 0.0000
vn 1.0000 0.0033 0.0000
vn 0.9946 -0.1037 0.0000
vn 0.9758 -0.2187 0.0000
vn 0.9385 -0.3452 0.0000
vn 0.8782 -0.4783 0.0000
vn 0.7927 -0.6096 0.0000
vn 0.6844 -0.7290 0.0000
vn 0.5608 -0.8279 0.0000
vn 0.4317 -0.9020 0.0000
vn 0.3064 -0.9519 0.0000
vn 0.1914 -0.9815 0.0000
vn 0.0896 -0.9960 0.0000
vn 0.0210 -0.9998 0.0000
vn 0.0213 0.9998 0.0000
vn 0.0904 0.9959 0.0000
vn 0.1928 0.9812 0.0000
vn 0.3077 0.9515 0.0000
vn 0.4320 0.9019 0.0000
vn 0.5596 0.8288 0.0000
vn 0.6815 0.7317 0.0000
vn 0.7886 0.6148 0.0000
vn 0.8740 0.4859 0.0000
vn 0.9352 0.3540 0.0000
vn 0.9739 0.2268 0.0000
vn 0.9940 0.1090 0.0000
vn 1.0000 -0.0068 0.0000
vn 0.9905 -0.1373 0.0000
vn 0.9593 -0.2825 0.0000
vn 0.9027 -0.4302 0.0000
vn 0.8209 -0.5711 0.0000
vn 0.7183 -0.6957 0.0000
vn 0.6030 -0.7978 0.0000
vn 0.4838 -0.8751 0.0000
vn 0.3681 -0.9297 0.0000
vn 0.2606 -0.9654 0.0000
vn 0.1635 -0.9865 0.0000
vn 0.0771 -0.9970 0.0000
vn 0.0183 -0.9998 0.0000
usemtl None
s off
f 51/1/1 78/2/1 52/3/1
f 78/2/1 1/4/1 52/3/1
f 78/2/1 2/5/1 1/4/1
f 78/2/1 3/6/1 2/5/1
f 78/2/1 4/7/1 3/6/1
f 78/2/1 5/8/1 4/7/1
f 78/2/1 6/9/1 5/8/1
f 78/2/1 7/10/1 6/9/1
f 78/2/1 8/11/1 7/10/1
f 78/2/1 77/12/1 8/11/1
f 77/12/1 9/13/1 8/11/1
f 51/1/1 79/14/1 78/2/1
f 76/15/1 9/13/1 77/12/1
f 75/16/1 9/13/1 76/15/1
f 75/16/1 10/17/1 9/13/1
f 74/18/1 10/17/1 75/16/1
f 73/19/1 10/17/1 74/18/1
f 72/20/1 10/17/1 73/19/1
f 71/21/1 10/17/1 72/20/1
f 71/21/1 11/22/1 10/17/1
f 70/23/1 11/22/1 71/21/1
f 69/24/1 11/22/1 70/23/1
f 69/24/1 12/25/1 11/22/1
f 68/26/1 12/25/1 69/24/1
f 67/27/1 12/25/1 68/26/1
f 67/27/1 13/28/1 12/25/1
f 66/29/1 13/28/1 67/27/1
f 65/30/1 13/28/1 66/29/1
f 65/30/1 14/31/1 13/28/1
f 64/32/1 14/31/1 65/30/1
f 64/32/1 15/33/1 14/31/1
f 63/34/1 15/33/1 64/32/1
f 63/34/1 16/35/1 15/33/1
f 62/36/1 16/35/1 63/34/1
f 62/36/1 17/37/1 16/35/1
f 61/38/1 17/37/1 62/36/1
f 61/38/1 18/39/1 17/37/1
f 60/40/1 18/39/1 61/38/1
f 60/40/1 19/41/1 18/39/1
f 59/42/1 19/41/1 60/40/1
f 59/42/1 20/43/1 19/41/1
f 58/44/1 20/43/1 59/42/1
f 57/45/1 20/43/1 58/44/1
f 57/45/1 21/46/1 20/43/1
f 56/47/1 21/46/1 57/45/1
f 56/47/1 22/48/1 21/46/1
f 55/49/1 22/48/1 56/47/1
f 54/50/1 22/48/1 55/49/1
f 53/51/1 22/48/1 54/50/1
f 51/1/1 105/52/1 79/14/1
f 105/52/1 53/51/1 79/14/1
f 105/52/1 22/48/1 53/51/1
f 105/52/1 23/53/1 22/48/1
f 105/52/1 24/54/1 23/53/1
f 105/52/1 25/55/1 24/54/1
f 105/52/1 26/56/1 25/55/1
f 105/52/1 27/57/1 26/56/1
f 105/52/1 28/58/1 27/57/1
f 105/52/1 29/59/1 28/58/1
f 105/52/1 30/60/1 29/59/1
f 105/52/1 31/61/1 30/60/1
f 105/52/1 104/62/1 31/61/1
f 104/62/1 32/63/1 31/61/1
f 51/1/1 106/64/1 105/52/1
f 103/65/1 32/63/1 104/62/1
f 102/66/1 32/63/1 103/65/1
f 101/67/1 32/63/1 102/66/1
f 101/67/1 33/68/1 32/63/1
f 100/69/1 33/68/1 101/67/1
f 99/70/1 33/68/1 100/69/1
f 99/70/1 34/71/1 33/68/1
f 98/72/1 34/71/1 99/70/1
f 97/73/1 34/71/1 98/72/1
f 97/73/1 35/74/1 34/71/1
f 96/75/1 35/74/1 97/73/1
f 95/76/1 35/74/1 96/75/1
f 95/76/1 36/77/1 35/74/1
f 94/78/1 36/77/1 95/76/1
f 94/78/1 37/79/1 36/77/1
f 93/80/1 37/79/1 94/78/1
f 92/81/1 37/79/1 93/80/1
f 92/81/1 38/82/1 37/79/1
f 91/83/1 38/82/1 92/81/1
f 90/84/1 38/82/1 91/83/1
f 90/84/1 39/85/1 38/82/1
f 89/86/1 39/85/1 90/84/1
f 89/86/1 40/87/1 39/85/1
f 88/88/1 40/87/1 89/86/1
f 87/89/1 40/87/1 88/88/1
f 87/89/1 41/90/1 40/87/1
f 86/91/1 41/90/1 87/89/1
f 85/92/1 41/90/1 86/91/1
f 85/92/1 42/93/1 41/90/1
f 84/94/1 42/93/1 85/92/1
f 83/95/1 42/93/1 84/94/1
f 82/96/1 42/93/1 83/95/1
f 82/96/1 43/97/1 42/93/1
f 81/98/1 43/97/1 82/96/1
f 80/99/1 43/97/1 81/98/1
f 51/1/1 80/99/1 106/64/1
f 51/1/1 43/97/1 80/99/1
f 51/1/1 44/100/1 43/97/1
f 51/1/1 45/101/1 44/100/1
f 51/1/1 46/102/1 45/101/1
f 51/1/1 47/103/1 46/102/1
f 51/1/1 48/104/1 47/103/1
f 51/1/1 49/105/1 48/104/1
f 51/1/1 50/106/1 49/105/1
f 184/107/2 157/108/2 158/109/2
f 107/110/2 184/107/2 158/109/2
f 108/111/2 184/107/2 107/110/2
f 109/112/2 184/107/2 108/111/2
f 110/113/2 184/107/2 109/112/2
f 111/114/2 184/107/2 110/113/2
f 112/115/2 184/107/2 111/114/2
f 113/116/2 184/107/2 112/115/2
f 114/117/2 184/107/2 113/116/2
f 183/118/2 184/107/2 114/117/2
f 115/119/2 183/118/2 114/117/2
f 185/120/2 157/108/2 184/107/2
f 115/119/2 182/121/2 183/118/2
f 115/119/2 181/122/2 182/121/2
f 116/123/2 181/122/2 115/119/2
f 116/123/2 180/124/2 181/122/2
f 116/123/2 179/125/2 180/124/2
f 116/123/2 178/126/2 179/125/2
f 116/123/2 177/127/2 178/126/2
f 117/128/2 177/127/2 116/123/2
f 117/128/2 176/129/2 177/127/2
f 117/128/2 175/130/2 176/129/2
f 118/131/2 175/130/2 117/128/2
f 118/131/2 174/132/2 175/130/2
f 118/131/2 173/133/2 174/132/2
f 119/134/2 173/133/2 118/131/2
f 119/134/2 172/135/2 173/133/2
f 119/134/2 171/136/2 172/135/2
f 120/137/2 171/136/2 119/134/2
f 120/137/2 170/138/2 171/136/2
f 121/139/2 170/138/2 120/137/2
f 121/139/2 169/140/2 170/138/2
f 122/141/2 169/140/2 121/139/2
f 122/141/2 168/142/2 169/140/2
f 123/143/2 168/142/2 122/141/2
f 123/143/2 167/144/2 168/142/2
f 124/145/2 167/144/2 123/143/2
f 124/145/2 166/146/2 167/144/2
f 125/147/2 166/146/2 124/145/2
f 125/147/2 165/148/2 166/146/2
f 126/149/2 165/148/2 125/147/2
f 126/149/2 164/150/2 165/148/2
f 126/149/2 163/151/2 164/150/2
f 127/152/2 163/151/2 126/149/2
f 127/152/2 162/153/2 163/151/2
f 128/154/2 162/153/2 127/152/2
f 128/154/2 161/155/2 162/153/2
f 128/154/2 160/156/2 161/155/2
f 128/154/2 159/157/2 160/156/2
f 211/158/2 157/108/2 185/120/2
f 159/157/2 211/158/2 185/120/2
f 128/154/2 211/158/2 159/157/2
f 129/159/2 211/158/2 128/154/2
f 130/160/2 211/158/2 129/159/2
f 131/161/2 211/158/2 130/160/2
f 132/162/2 211/158/2 131/161/2
f 133/163/2 211/158/2 132/162/2
f 134/164/2 211/158/2 133/163/2
f 135/165/2 211/158/2 134/164/2
f 136/166/2 211/158/2 135/165/2
f 137/167/2 211/158/2 136/166/2
f 210/168/2 211/158/2 137/167/2
f 138/169/2 210/168/2 137/167/2
f 212/170/2 157/108/2 211/158/2
f 138/169/2 209/171/2 210/168/2
f 138/169/2 208/172/2 209/171/2
f 138/169/2 207/173/2 208/172/2
f 139/174/2 207/173/2 138/169/2
f 139/174/2 206/175/2 207/173/2
f 139/174/2 205/176/2 206/175/2
f 140/177/2 205/176/2 139/174/2
f 140/177/2 204/178/2 205/176/2
f 140/177/2 203/179/2 204/178/2
f 141/180/2 203/179/2 140/177/2
f 141/180/2 202/181/2 203/179/2
f 141/180/2 201/182/2 202/181/2
f 142/183/2 201/182/2 141/180/2
f 142/183/2 200/184/2 201/182/2
f 143/185/2 200/184/2 142/183/2
f 143/185/2 199/186/2 200/184/2
f 143/185/2 198/187/2 199/186/2
f 144/188/2 198/187/2 143/185/2
f 144/188/2 197/189/2 198/187/2
f 144/188/2 196/190/2 197/189/2
f 145/191/2 196/190/2 144/188/2
f 145/191/2 195/192/2 196/190/2
f 146/193/2 195/192/2 145/191/2
f 146/193/2 194/194/2 195/192/2
f 146/193/2 193/195/2 194/194/2
f 147/196/2 193/195/2 146/193/2
f 147/196/2 192/197/2 193/195/2
f 147/196/2 191/198/2 192/197/2
f 148/199/2 191/198/2 147/196/2
f 148/199/2 190/200/2 191/198/2
f 148/199/2 189/201/2 190/200/2
f 148/199/2 188/202/2 189/201/2
f 149/203/2 188/202/2 148/199/2
f 149/203/2 187/204/2 188/202/2
f 149/203/2 186/205/2 187/204/2
f 186/205/2 157/108/2 212/170/2
f 149/203/2 157/108/2 186/205/2
f 150/206/2 157/108/2 149/203/2
f 151/207/2 157/108/2 150/206/2
f 152/208/2 157/108/2 151/207/2
f 153/209/2 157/108/2 152/208/2
f 154/210/2 157/108/2 153/209/2
f 155/211/2 157/108/2 154/210/2
f 156/212/2 157/108/2 155/211/2
f 475/213/2 502/214/2 476/215/2
f 502/214/2 425/216/2 476/215/2
f 502/214/2 426/217/2 425/216/2
f 502/214/2 427/218/2 426/217/2
f 502/214/2 428/219/2 427/218/2
f 502/214/2 429/220/2 428/219/2
f 502/214/2 430/221/2 429/220/2
f 502/214/2 431/222/2 430/221/2
f 502/214/2 432/223/2 431/222/2
f 502/214/2 501/224/2 432/223/2
f 501/224/2 433/225/2 432/223/2
f 475/213/2 503/226/2 502/214/2
f 500/227/2 433/225/2 501/224/2
f 499/228/2 433/225/2 500/227/2
f 499/228/2 434/229/2 433/225/2
f 498/230/2 434/229/2 499/228/2
f 497/231/2 434/229/2 498/230/2
f 496/232/2 434/229/2 497/231/2
f 495/233/2 434/229/2 496/232/2
f 495/233/2 435/234/2 434/229/2
f 494/235/2 435/234/2 495/233/2
f 493/236/2 435/234/2 494/235/2
f 493/236/2 436/237/2 435/234/2
f 492/238/2 436/237/2 493/236/2
f 491/239/2 436/237/2 492/238/2
f 491/239/2 437/240/2 436/237/2
f 490/241/2 437/240/2 491/239/2
f 489/242/2 437/240/2 490/241/2
f 489/242/2 438/243/2 437/240/2
f 488/244/2 438/243/2 489/242/2
f 488/244/2 439/245/2 438/243/2
f 487/246/2 439/245/2 488/244/2
f 487/246/2 440/247/2 439/245/2
f 486/248/2 440/247/2 487/246/2
f 486/248/2 441/249/2 440/247/2
f 485/250/2 441/249/2 486/248/2
f 485/250/2 442/251/2 441/249/2
f 484/252/2 442/251/2 485/250/2
f 484/252/2 443/253/2 442/251/2
f 483/254/2 443/253/2 484/252/2
f 483/254/2 444/255/2 443/253/2
f 482/256/2 444/255/2 483/254/2
f 481/257/2 444/255/2 482/256/2
f 481/257/2 445/258/2 444/255/2
f 480/259/2 445/258/2 481/257/2
f 480/259/2 446/260/2 445/258/2
f 479/261/2 446/260/2 480/259/2
f 478/262/2 446/260/2 479/261/2
f 477/263/2 446/260/2 478/262/2
f 475/213/2 529/264/2 503/226/2
f 529/264/2 477/263/2 503/226/2
f 529/264/2 446/260/2 477/263/2
f 529/264/2 447/265/2 446/260/2
f 529/264/2 448/266/2 447/265/2
f 529/264/2 449/267/2 448/266/2
f 529/264/2 450/268/2 449/267/2
f 529/264/2 451/269/2 450/268/2
f 529/264/2 452/270/2 451/269/2
f 529/264/2 453/271/2 452/270/2
f 529/264/2 454/272/2 453/271/2
f 529/264/2 455/273/2 454/272/2
f 529/264/2 528/274/2 455/273/2
f 528/274/2 456/275/2 455/273/2
f 475/213/2 530/276/2 529/264/2
f 527/277/2 456/275/2 528/274/2
f 526/278/2 456/275/2 527/277/2
f 525/279/2 456/275/2 526/278/2
f 525/279/2 457/280/2 456/275/2
f 524/281/2 457/280/2 525/279/2
f 523/282/2 457/280/2 524/281/2
f 523/282/2 458/283/2 457/280/2
f 522/284/2 458/283/2 523/282/2
f 521/285/2 458/283/2 522/284/2
f 521/285/2 459/286/2 458/283/2
f 520/287/2 459/286/2 521/285/2
f 519/288/2 459/286/2 520/287/2
f 519/288/2 460/289/2 459/286/2
f 518/290/2 460/289/2 519/288/2
f 518/290/2 461/291/2 460/289/2
f 517/292/2 461/291/2 518/290/2
f 516/293/2 461/291/2 517/292/2
f 516/293/2 462/294/2 461/291/2
f 515/295/2 462/294/2 516/293/2
f 514/296/2 462/294/2 515/295/2
f 514/296/2 463/297/2 462/294/2
f 513/298/2 463/297/2 514/296/2
f 513/298/2 464/299/2 463/297/2
f 512/300/2 464/299/2 513/298/2
f 511/301/2 464/299/2 512/300/2
f 511/301/2 465/302/2 464/299/2
f 510/303/2 465/302/2 511/301/2
f 509/304/2 465/302/2 510/303/2
f 509/304/2 466/305/2 465/302/2
f 508/306/2 466/305/2 509/304/2
f 507/307/2 466/305/2 508/306/2
f 506/308/2 466/305/2 507/307/2
f 506/308/2 467/309/2 466/305/2
f 505/310/2 467/309/2 506/308/2
f 504/311/2 467/309/2 505/310/2
f 475/213/2 504/311/2 530/276/2
f 475/213/2 467/309/2 504/311/2
f 475/213/2 468/312/2 467/309/2
f 475/213/2 469/313/2 468/312/2
f 475/213/2 470/314/2 469/313/2
f 475/213/2 471/315/2 470/314/2
f 475/213/2 472/316/2 471/315/2
f 475/213/2 473/317/2 472/316/2
f 475/213/2 474/318/2 473/317/2
f 608/319/1 581/320/1 582/321/1
f 531/322/1 608/319/1 582/321/1
f 532/323/1 608/319/1 531/322/1
f 533/324/1 608/319/1 532/323/1
f 534/325/1 608/319/1 533/324/1
f 535/326/1 608/319/1 534/325/1
f 536/327/1 608/319/1 535/326/1
f 537/328/1 608/319/1 536/327/1
f 538/329/1 608/319/1 537/328/1
f 607/330/1 608/319/1 538/329/1
f 539/331/1 607/330/1 538/329/1
f 609/332/1 581/320/1 608/319/1
f 539/331/1 606/333/1 607/330/1
f 539/331/1 605/334/1 606/333/1
f 540/335/1 605/334/1 539/331/1
f 540/335/1 604/336/1 605/334/1
f 540/335/1 603/337/1 604/336/1
f 540/335/1 602/338/1 603/337/1
f 540/335/1 601/339/1 602/338/1
f 541/340/1 601/339/1 540/335/1
f 541/340/1 600/341/1 601/339/1
f 541/340/1 599/342/1 600/341/1
f 542/343/1 599/342/1 541/340/1
f 542/343/1 598/344/1 599/342/1
f 542/343/1 597/345/1 598/344/1
f 543/346/1 597/345/1 542/343/1
f 543/346/1 596/347/1 597/345/1
f 543/346/1 595/348/1 596/347/1
f 544/349/1 595/348/1 543/346/1
f 544/349/1 594/350/1 595/348/1
f 545/351/1 594/350/1 544/349/1
f 545/351/1 593/352/1 594/350/1
f 546/353/1 593/352/1 545/351/1
f 546/353/1 592/354/1 593/352/1
f 547/355/1 592/354/1 546/353/1
f 547/355/1 591/356/1 592/354/1
f 548/357/1 591/356/1 547/355/1
f 548/357/1 590/358/1 591/356/1
f 549/359/1 590/358/1 548/357/1
f 549/359/1 589/360/1 590/358/1
f 550/361/1 589/360/1 549/359/1
f 550/361/1 588/362/1 589/360/1
f 550/361/1 587/363/1 588/362/1
f 551/364/1 587/363/1 550/361/1
f 551/364/1 586/365/1 587/363/1
f 552/366/1 586/365/1 551/364/1
f 552/366/1 585/367/1 586/365/1
f 552/366/1 584/368/1 585/367/1
f 552/366/1 583/369/1 584/368/1
f 635/370/1 581/320/1 609/332/1
f 583/369/1 635/370/1 609/332/1
f 552/366/1 635/370/1 583/369/1
f 553/371/1 635/370/1 552/366/1
f 554/372/1 635/370/1 553/371/1
f 555/373/1 635/370/1 554/372/1
f 556/374/1 635/370/1 555/373/1
f 557/375/1 635/370/1 556/374/1
f 558/376/1 635/370/1 557/375/1
f 559/377/1 635/370/1 558/376/1
f 560/378/1 635/370/1 559/377/1
f 561/379/1 635/370/1 560/378/1
f 634/380/1 635/370/1 561/379/1
f 562/381/1 634/380/1 561/379/1
f 636/382/1 581/320/1 635/370/1
f 562/381/1 633/383/1 634/380/1
f 562/381/1 632/384/1 633/383/1
f 562/381/1 631/385/1 632/384/1
f 563/386/1 631/385/1 562/381/1
f 563/386/1 630/387/1 631/385/1
f 563/386/1 629/388/1 630/387/1
f 564/389/1 629/388/1 563/386/1
f 564/389/1 628/390/1 629/388/1
f 564/389/1 627/391/1 628/390/1
f 565/392/1 627/391/1 564/389/1
f 565/392/1 626/393/1 627/391/1
f 565/392/1 625/394/1 626/393/1
f 566/395/1 625/394/1 565/392/1
f 566/395/1 624/396/1 625/394/1
f 567/397/1 624/396/1 566/395/1
f 567/397/1 623/398/1 624/396/1
f 567/397/1 622/399/1 623/398/1
f 568/400/1 622/399/1 567/397/1
f 568/400/1 621/401/1 622/399/1
f 568/400/1 620/402/1 621/401/1
f 569/403/1 620/402/1 568/400/1
f 569/403/1 619/404/1 620/402/1
f 570/405/1 619/404/1 569/403/1
f 570/405/1 618/406/1 619/404/1
f 570/405/1 617/407/1 618/406/1
f 571/408/1 617/407/1 570/405/1
f 571/408/1 616/409/1 617/407/1
f 571/408/1 615/410/1 616/409/1
f 572/411/1 615/410/1 571/408/1
f 572/411/1 614/412/1 615/410/1
f 572/411/1 613/413/1 614/412/1
f 572/411/1 612/414/1 613/413/1
f 573/415/1 612/414/1 572/411/1
f 573/415/1 611/416/1 612/414/1
f 573/415/1 610/417/1 611/416/1
f 610/417/1 581/320/1 636/382/1
f 573/415/1 581/320/1 610/417/1
f 574/418/1 581/320/1 573/415/1
f 575/419/1 581/320/1 574/418/1
f 576/420/1 581/320/1 575/419/1
f 577/421/1 581/320/1 576/420/1
f 578/422/1 581/320/1 577/421/1
f 579/423/1 581/320/1 578/422/1
f 580/424/1 581/320/1 579/423/1
f 849/425/3 852/426/3 853/427/3 850/428/3
f 849/425/4 851/429/4 854/430/4 852/426/4
f 852/431/5 855/432/5 856/433/5 853/434/5
f 854/435/6 857/436/6 855/432/6 852/431/6
f 855/437/7 858/438/7 859/439/7 856/440/7
f 857/441/8 860/442/8 858/438/8 855/437/8
f 858/443/9 861/444/9 862/445/9 859/446/9
f 860/447/10 863/448/10 861/444/10 858/443/10
f 861/449/11 864/450/11 865/451/11 862/452/11
f 863/453/12 866/454/12 864/450/12 861/449/12
f 864/455/13 849/456/13 850/457/13 865/458/13
f 854/459/1 851/460/1 866/461/1 863/462/1 860/463/1 857/464/1
f 866/465/14 851/466/14 849/456/14 864/455/14
f 853/467/2 856/468/2 859/469/2 862/470/2 865/471/2 850/472/2
s 1
f 214/473/15 216/474/16 215/475/16 213/476/15
f 216/474/16 218/477/17 217/478/17 215/475/16
f 218/477/17 220/479/18 219/480/18 217/478/17
f 220/479/18 222/481/19 221/482/19 219/480/18
f 222/481/19 224/483/20 223/484/20 221/482/19
f 224/483/20 226/485/21 225/486/21 223/484/20
f 226/485/21 228/487/22 227/488/22 225/486/21
f 228/487/22 230/489/23 229/490/23 227/488/22
f 230/489/23 232/491/24 231/492/24 229/490/23
f 232/491/24 234/493/25 233/494/25 231/492/24
f 234/493/25 236/495/26 235/496/26 233/494/25
f 236/495/26 238/497/27 237/498/27 235/496/26
f 238/497/27 240/499/28 239/500/28 237/498/27
f 240/499/28 242/501/29 241/502/29 239/500/28
f 242/501/29 244/503/30 243/504/30 241/502/29
f 244/503/30 246/505/31 245/506/31 243/504/30
f 246/505/31 248/507/32 247/508/32 245/506/31
f 248/507/32 250/509/33 249/510/33 247/508/32
f 250/509/33 252/511/34 251/512/34 249/510/33
f 252/511/34 254/513/35 253/514/35 251/512/34
f 254/513/35 256/515/36 255/516/36 253/514/35
f 256/515/36 258/517/37 257/518/37 255/516/36
f 258/517/37 260/519/38 259/520/38 257/518/37
f 260/519/38 262/521/39 261/522/39 259/520/38
f 262/521/39 264/523/40 263/524/40 261/522/39
f 264/523/40 266/525/41 265/526/41 263/524/40
f 266/525/41 268/527/42 267/528/42 265/526/41
f 268/527/42 270/529/43 269/530/43 267/528/42
f 270/529/43 272/531/44 271/532/44 269/530/43
f 272/531/44 274/533/45 273/534/45 271/532/44
f 274/533/45 276/535/46 275/536/46 273/534/45
f 276/535/46 278/537/47 277/538/47 275/536/46
f 278/537/47 280/539/48 279/540/48 277/538/47
f 280/539/48 282/541/49 281/542/49 279/540/48
f 282/541/49 284/543/50 283/544/50 281/542/49
f 284/543/50 286/545/51 285/546/51 283/544/50
f 286/545/51 288/547/52 287/548/52 285/546/51
f 288/547/52 290/549/53 289/550/53 287/548/52
f 290/549/53 292/551/54 291/552/54 289/550/53
f 292/551/54 294/553/55 293/554/55 291/552/54
f 294/553/55 296/555/56 295/556/56 293/554/55
f 296/555/56 298/557/57 297/558/57 295/556/56
f 298/557/57 300/559/58 299/560/58 297/558/57
f 300/559/58 302/561/59 301/562/59 299/560/58
f 302/561/59 304/563/60 303/564/60 301/562/59
f 304/563/60 306/565/61 305/566/61 303/564/60
f 306/565/61 308/567/62 307/568/62 305/566/61
f 308/567/62 310/569/63 309/570/63 307/568/62
f 310/569/63 312/571/64 311/572/64 309/570/63
f 312/571/64 314/573/65 313/574/65 311/572/64
f 314/573/65 316/575/66 315/576/66 313/574/65
f 316/575/66 214/473/15 213/476/15 315/576/66
f 318/577/67 320/578/68 319/579/68 317/580/67
f 320/578/68 322/581/69 321/582/69 319/579/68
f 322/581/69 324/583/70 323/584/70 321/582/69
f 324/583/70 326/585/71 325/586/71 323/584/70
f 326/585/71 328/587/72 327/588/72 325/586/71
f 328/587/72 330/589/73 329/590/73 327/588/72
f 330/589/73 332/591/74 331/592/74 329/590/73
f 332/591/74 334/593/75 333/594/75 331/592/74
f 334/593/75 336/595/76 335/596/76 333/594/75
f 336/595/76 338/597/77 337/598/77 335/596/76
f 338/597/77 340/599/78 339/600/78 337/598/77
f 340/599/78 342/601/79 341/602/79 339/600/78
f 342/601/79 344/603/80 343/604/80 341/602/79
f 344/603/80 346/605/81 345/606/81 343/604/80
f 346/605/81 348/607/82 347/608/82 345/606/81
f 348/607/82 350/609/83 349/610/83 347/608/82
f 350/609/83 352/611/84 351/612/84 349/610/83
f 352/611/84 354/613/85 353/614/85 351/612/84
f 354/613/85 356/615/86 355/616/86 353/614/85
f 356/615/86 358/617/87 357/618/87 355/616/86
f 358/617/87 360/619/88 359/620/88 357/618/87
f 360/619/88 362/621/89 361/622/89 359/620/88
f 362/621/89 364/623/90 363/624/90 361/622/89
f 364/623/90 366/625/91 365/626/91 363/624/90
f 366/625/91 368/627/92 367/628/92 365/626/91
f 368/627/92 370/629/93 369/630/93 367/628/92
f 370/629/93 318/577/67 317/580/67 369/630/93
f 372/631/94 374/632/95 373/633/95 371/634/94
f 374/632/95 376/635/96 375/636/96 373/633/95
f 376/635/96 378/637/97 377/638/97 375/636/96
f 378/637/97 380/639/98 379/640/98 377/638/97
f 380/639/98 382/641/99 381/642/99 379/640/98
f 382/641/99 384/643/100 383/644/100 381/642/99
f 384/643/100 386/645/101 385/646/101 383/644/100
f 386/645/101 388/647/102 387/648/102 385/646/101
f 388/647/102 390/649/103 389/650/103 387/648/102
f 390/649/103 392/651/104 391/652/104 389/650/103
f 392/651/104 394/653/105 393/654/105 391/652/104
f 394/653/105 396/655/106 395/656/106 393/654/105
f 396/655/106 398/657/107 397/658/107 395/656/106
f 398/657/107 400/659/108 399/660/108 397/658/107
f 400/659/108 402/661/109 401/662/109 399/660/108
f 402/661/109 404/663/110 403/664/110 401/662/109
f 404/663/110 406/665/111 405/666/111 403/664/110
f 406/665/111 408/667/112 407/668/112 405/666/111
f 408/667/112 410/669/113 409/670/113 407/668/112
f 410/669/113 412/671/114 411/672/114 409/670/113
f 412/671/114 414/673/115 413/674/115 411/672/114
f 414/673/115 416/675/116 415/676/116 413/674/115
f 416/675/116 418/677/117 417/678/117 415/676/116
f 418/677/117 420/679/118 419/680/118 417/678/117
f 420/679/118 422/681/92 421/682/92 419/680/118
f 422/681/92 424/683/93 423/684/93 421/682/92
f 424/683/93 372/631/94 371/634/94 423/684/93
f 638/685/119 640/686/120 639/687/120 637/688/119
f 640/686/120 642/689/121 641/690/121 639/687/120
f 642/689/121 644/691/122 643/692/122 641/690/121
f 644/691/122 646/693/123 645/694/123 643/692/122
f 646/693/123 648/695/124 647/696/124 645/694/123
f 648/695/124 650/697/125 649/698/125 647/696/124
f 650/697/125 652/699/126 651/700/126 649/698/125
f 652/699/126 654/701/127 653/702/127 651/700/126
f 654/701/127 656/703/128 655/704/128 653/702/127
f 656/703/128 658/705/129 657/706/129 655/704/128
f 658/705/129 660/707/130 659/708/130 657/706/129
f 660/707/130 662/709/131 661/710/131 659/708/130
f 662/709/131 664/711/132 663/712/132 661/710/131
f 664/711/132 666/713/133 665/714/133 663/712/132
f 666/713/133 668/715/134 667/716/134 665/714/133
f 668/715/134 670/717/135 669/718/135 667/716/134
f 670/717/135 672/719/136 671/720/136 669/718/135
f 672/719/136 674/721/137 673/722/137 671/720/136
f 674/721/137 676/723/138 675/724/138 673/722/137
f 676/723/138 678/725/139 677/726/139 675/724/138
f 678/725/139 680/727/140 679/728/140 677/726/139
f 680/727/140 682/729/141 681/730/141 679/728/140
f 682/729/141 684/731/142 683/732/142 681/730/141
f 684/731/142 686/733/143 685/734/143 683/732/142
f 686/733/143 688/735/144 687/736/144 685/734/143
f 688/735/144 690/737/145 689/738/145 687/736/144
f 690/737/145 692/739/146 691/740/146 689/738/145
f 692/739/146 694/741/147 693/742/147 691/740/146
f 694/741/147 696/743/148 695/744/148 693/742/147
f 696/743/148 698/745/149 697/746/149 695/744/148
f 698/745/149 700/747/150 699/748/150 697/746/149
f 700/747/150 702/749/151 701/750/151 699/748/150
f 702/749/151 704/751/152 703/752/152 701/750/151
f 704/751/152 706/753/153 705/754/153 703/752/152
f 706/753/153 708/755/154 707/756/154 705/754/153
f 708/755/154 710/757/155 709/758/155 707/756/154
f 710/757/155 712/759/156 711/760/156 709/758/155
f 712/759/156 714/761/157 713/762/157 711/760/156
f 714/761/157 716/763/158 715/764/158 713/762/157
f 716/763/158 718/765/159 717/766/159 715/764/158
f 718/765/159 720/767/160 719/768/160 717/766/159
f 720/767/160 722/769/161 721/770/161 719/768/160
f 722/769/161 724/771/162 723/772/162 721/770/161
f 724/771/162 726/773/163 725/774/163 723/772/162
f 726/773/163 728/775/164 727/776/164 725/774/163
f 728/775/164 730/777/165 729/778/165 727/776/164
f 730/777/165 732/779/166 731/780/166 729/778/165
f 732/779/166 734/781/167 733/782/167 731/780/166
f 734/781/167 736/783/168 735/784/168 733/782/167
f 736/783/168 738/785/92 737/786/92 735/784/168
f 738/785/92 740/787/93 739/788/93 737/786/92
f 740/787/93 638/685/119 637/688/119 739/788/93
f 742/789/169 744/790/170 743/791/170 741/792/169
f 744/790/170 746/793/171 745/794/171 743/791/170
f 746/793/171 748/795/172 747/796/172 745/794/171
f 748/795/172 750/797/173 749/798/173 747/796/172
f 750/797/173 752/799/174 751/800/174 749/798/173
f 752/799/174 754/801/175 753/802/175 751/800/174
f 754/801/175 756/803/176 755/804/176 753/802/175
f 756/803/176 758/805/177 757/806/177 755/804/176
f 758/805/177 760/807/178 759/808/178 757/806/177
f 760/807/178 762/809/179 761/810/179 759/808/178
f 762/809/179 764/811/180 763/812/180 761/810/179
f 764/811/180 766/813/181 765/814/181 763/812/180
f 766/813/181 768/815/182 767/816/182 765/814/181
f 768/815/182 770/817/183 769/818/183 767/816/182
f 770/817/183 772/819/184 771/820/184 769/818/183
f 772/819/184 774/821/185 773/822/185 771/820/184
f 774/821/185 776/823/186 775/824/186 773/822/185
f 776/823/186 778/825/187 777/826/187 775/824/186
f 778/825/187 780/827/188 779/828/188 777/826/187
f 780/827/188 782/829/189 781/830/189 779/828/188
f 782/829/189 784/831/190 783/832/190 781/830/189
f 784/831/190 786/833/191 785/834/191 783/832/190
f 786/833/191 788/835/192 787/836/192 785/834/191
f 788/835/192 790/837/193 789/838/193 787/836/192
f 790/837/193 792/839/65 791/840/65 789/838/193
f 792/839/65 794/841/66 793/842/66 791/840/65
f 794/841/66 742/789/169 741/792/169 793/842/66
f 796/843/194 798/844/195 797/845/195 795/846/194
f 798/844/195 800/847/196 799/848/196 797/845/195
f 800/847/196 802/849/197 801/850/197 799/848/196
f 802/849/197 804/851/198 803/852/198 801/850/197
f 804/851/198 806/853/199 805/854/199 803/852/198
f 806/853/199 808/855/200 807/856/200 805/854/199
f 808/855/200 810/857/201 809/858/201 807/856/200
f 810/857/201 812/859/202 811/860/202 809/858/201
f 812/859/202 814/861/203 813/862/203 811/860/202
f 814/861/203 816/863/204 815/864/204 813/862/203
f 816/863/204 818/865/205 817/866/205 815/864/204
f 818/865/205 820/867/206 819/868/206 817/866/205
f 820/867/206 822/869/207 821/870/207 819/868/206
f 822/869/207 824/871/208 823/872/208 821/870/207
f 824/871/208 826/873/209 825/874/209 823/872/208
f 826/873/209 828/875/210 827/876/210 825/874/209
f 828/875/210 830/877/211 829/878/211 827/876/210
f 830/877/211 832/879/212 831/880/212 829/878/211
f 832/879/212 834/881/213 833/882/213 831/880/212
f 834/881/213 836/883/214 835/884/214 833/882/213
f 836/883/214 838/885/215 837/886/215 835/884/214
f 838/885/215 840/887/216 839/888/216 837/886/215
f 840/887/216 842/889/217 841/890/217 839/888/216
f 842/889/217 844/891/218 843/892/218 841/890/217
f 844/891/218 846/893/65 845/894/65 843/892/218
f 846/893/65 848/895/66 847/896/66 845/894/65
f 848/895/66 796/843/194 795/846/194 847/896/66
