# Blender v2.78 (sub 0) OBJ File: 'powerup.blend'
# www.blender.org
mtllib powerup.mtl
o Cone.001_Cone.000
v -0.393343 -0.504865 -0.271766
v 0.173230 -0.504865 -0.271766
v -0.393343 -0.310729 -0.271766
v 0.173230 -0.310729 -0.271766
v -0.393343 -0.504865 -0.332461
v 0.173230 -0.504865 -0.332462
v -0.393343 -0.310729 -0.332461
v 0.173230 -0.310729 -0.332462
v 0.365330 -0.504457 -0.271766
v 0.365330 0.628689 -0.271766
v 0.171193 -0.504457 -0.271766
v 0.171193 0.628689 -0.271766
v 0.365330 -0.504457 -0.332462
v 0.365330 0.628689 -0.332462
v 0.171193 -0.504457 -0.332462
v 0.171193 0.628689 -0.332462
v -1.001805 0.496098 0.250000
v -0.751805 -1.503902 0.250000
v -0.751805 0.496098 0.500000
v -0.501805 0.496098 0.250000
v -0.751805 0.496098 0.000000
v -0.751805 1.495999 0.250000
v 0.498195 0.496098 0.250000
v 0.748195 -1.503902 0.250000
v 0.748195 0.496098 0.500000
v 0.998195 0.496098 0.250000
v 0.748195 0.496098 -0.000000
v 0.748195 1.495999 0.250000
v -1.000460 -0.000000 -0.250000
v -0.000460 1.000000 -0.250000
v -0.000460 0.000000 0.750000
v 0.999540 -0.000000 -0.250000
v -0.000460 -1.000000 -0.250000
vt 0.2693 0.6871
vt 0.2693 0.8061
vt 0.2286 0.8061
vt 0.2286 0.6871
vt 0.1096 0.8061
vt 0.2286 0.8189
vt 0.1096 0.8189
vt 0.2286 0.9378
vt 0.2693 0.8189
vt 0.2693 0.9378
vt 0.3883 0.8189
vt 0.3883 0.8061
vt 0.2286 0.6744
vt 0.2693 0.6744
vt 0.3147 0.6739
vt 0.3147 0.9119
vt 0.2740 0.9119
vt 0.2740 0.6739
vt 0.2612 0.9119
vt 0.2612 0.6739
vt 0.2205 0.9119
vt 0.2205 0.6739
vt 0.2077 0.9119
vt 0.2077 0.6739
vt 0.2740 0.6612
vt 0.3147 0.6612
vt 0.2740 0.9246
vt 0.3147 0.9246
vt 0.4971 0.2871
vt 0.5739 0.5739
vt 0.2871 0.4971
vt 0.0002 0.5739
vt 0.0771 0.2871
vt 0.0002 0.0002
vt 0.2871 0.0771
vt 0.5739 0.0002
vt 0.6350 0.7898
vt 0.8479 0.4239
vt 0.7022 0.8213
vt 0.7739 0.8407
vt 0.8479 0.8472
vt 0.5744 0.7470
vt 0.7260 0.7143
vt 0.7260 0.6400
vt 0.8002 0.6400
vt 0.8002 0.7143
vt 0.6671 0.6887
vt 0.8708 0.7619
vt 0.6544 0.7619
vt 0.8296 0.5494
vt 0.7602 0.5758
vt 0.7038 0.6242
vt 0.7780 0.8717
vt 0.7041 0.4549
vt 0.8497 0.8523
vt 0.9169 0.8208
vt 0.9776 0.7779
vt 0.7041 0.8782
vt 0.7275 0.7124
vt 0.7275 0.6382
vt 0.8018 0.6382
vt 0.8018 0.7124
vt 0.6640 0.6829
vt 0.8677 0.7560
vt 0.6513 0.7560
vt 0.8264 0.5436
vt 0.7571 0.5700
vt 0.7007 0.6183
vn 0.0000 -0.0000 1.0000
vn 0.0000 1.0000 0.0000
vn -0.0000 0.0000 -1.0000
vn -0.0000 -1.0000 0.0000
vn -1.0000 0.0000 0.0000
vn 1.0000 0.0000 0.0000
vn -0.5774 0.5774 0.5774
vn 0.5774 0.5774 0.5774
vn 0.5774 -0.5774 0.5774
vn -0.5774 -0.5774 0.5774
vn -0.7044 -0.0880 0.7044
vn 0.7044 -0.0880 0.7044
vn 0.7044 -0.0880 -0.7044
vn -0.7044 -0.0880 -0.7044
vn -0.6963 0.1741 -0.6963
vn 0.6963 0.1741 -0.6963
vn 0.6963 0.1741 0.6963
vn -0.6963 0.1741 0.6963
usemtl None
s off
f 1/1/1 2/2/1 4/3/1 3/4/1
f 3/5/2 4/3/2 8/6/2 7/7/2
f 7/8/3 8/6/3 6/9/3 5/10/3
f 5/11/4 6/9/4 2/2/4 1/12/4
f 3/4/5 7/13/5 5/14/5 1/1/5
f 8/6/6 4/3/6 2/2/6 6/9/6
f 9/15/1 10/16/1 12/17/1 11/18/1
f 11/18/5 12/17/5 16/19/5 15/20/5
f 15/20/3 16/19/3 14/21/3 13/22/3
f 13/22/6 14/21/6 10/23/6 9/24/6
f 11/18/4 15/25/4 13/26/4 9/15/4
f 16/27/2 12/17/2 10/16/2 14/28/2
f 29/29/7 31/30/7 30/31/7
f 30/31/8 31/32/8 32/33/8
f 32/33/9 31/34/9 33/35/9
f 33/35/10 31/36/10 29/29/10
f 29/29/3 30/31/3 32/33/3 33/35/3
s 1
f 17/37/11 18/38/11 19/39/11
f 19/39/12 18/38/12 20/40/12
f 20/40/13 18/38/13 21/41/13
f 21/42/14 18/38/14 17/37/14
f 17/43/2 19/44/2 20/45/2 21/46/2
f 17/47/15 22/48/15 21/49/15
f 21/50/16 22/48/16 20/51/16
f 20/51/17 22/48/17 19/52/17
f 19/52/18 22/48/18 17/47/18
f 23/53/11 24/54/11 25/55/11
f 25/55/12 24/54/12 26/56/12
f 26/56/13 24/54/13 27/57/13
f 27/58/14 24/54/14 23/53/14
f 23/59/2 25/60/2 26/61/2 27/62/2
f 23/63/15 28/64/15 27/65/15
f 27/66/16 28/64/16 26/67/16
f 26/67/17 28/64/17 25/68/17
f 25/68/18 28/64/18 23/63/18
