%YAML 1.1
%TAG !u! tag:unity3d.com,2011:
--- !u!78 &1
TagManager:
  serializedVersion: 2
  tags:
  - Ring
  - Enemy
  - Turret
  - Lazer
  - TheEnd
  - BombPUp
  - LazerPUp
  - TTrigger
  - Cube
  - RangeWall
  - RTrigger
  - Destroyer
  - SB
  - ATrigger
  layers:
  - Default
  - TransparentFX
  - Ignore Raycast
  - 
  - Water
  - UI
  - 
  - 
  - Ring
  - Lazer
  - Player
  - Enemy
  - Scenery
  - Bomb
  - 
  - 
  - 
  - 
  - 
  - 
  - 
  - 
  - 
  - 
  - 
  - 
  - 
  - 
  - 
  - 
  - 
  - 
  m_SortingLayers:
  - name: Default
    uniqueID: 0
    locked: 0
